﻿


EVENT   1
 PAGE   1
  281(1)
  250(bytes(0x04,0x08,0x6f,0x3a,0x0c,0x52,0x50,0x47,0x3a,0x3a,0x53,0x45,0x08,0x3a,0x0a,0x40,0x6e,0x61,0x6d,0x65,0x49,0x22,0x09,0x4d,0x6f,0x76,0x65,0x06,0x3a,0x06,0x45,0x54,0x3a,0x0b,0x40,0x70,0x69,0x74,0x63,0x68,0x69,0x69,0x3a,0x0c,0x40,0x76,0x6f,0x6c,0x75,0x6d,0x65,0x69,0x55))
  TeleportPlayer(0,504,1,3,6,0)
  0()



EVENT   2
 PAGE   1
  281(1)
  250(bytes(0x04,0x08,0x6f,0x3a,0x0c,0x52,0x50,0x47,0x3a,0x3a,0x53,0x45,0x08,0x3a,0x0a,0x40,0x6e,0x61,0x6d,0x65,0x49,0x22,0x09,0x4d,0x6f,0x76,0x65,0x06,0x3a,0x06,0x45,0x54,0x3a,0x0b,0x40,0x70,0x69,0x74,0x63,0x68,0x69,0x69,0x3a,0x0c,0x40,0x76,0x6f,0x6c,0x75,0x6d,0x65,0x69,0x55))
  TeleportPlayer(0,504,1,3,6,0)
  0()



EVENT   3
 PAGE   1
  If(1,1057,0,2,2)
   ShowMessageFace("nekomata_fc1",2,0,2,1)
   ShowMessage("\\n<Nekomata>Meeeow♪")
   0()
  EndIf()
  If(1,1057,0,3,1)
   ShowMessageFace("nekomata_fc1",2,0,2,2)
   ShowMessage("\\n<Cat Goddess?>Meeeow♪")
   0()
  EndIf()
  0()



EVENT   4
 PAGE   1
  ShowMessageFace("nekomata_fc1",2,0,2,1)
  ShowMessage("\\n<Nekomata>Meow♪")
  0()



EVENT   5
 PAGE   1
  ShowMessageFace("nekomata_fc1",0,0,2,1)
  ShowMessage("\\n<Nekomata>Meeeow!")
  0()



EVENT   6
 PAGE   1
  281(1)
  250(bytes(0x04,0x08,0x6f,0x3a,0x0c,0x52,0x50,0x47,0x3a,0x3a,0x53,0x45,0x08,0x3a,0x0a,0x40,0x6e,0x61,0x6d,0x65,0x49,0x22,0x09,0x4d,0x6f,0x76,0x65,0x06,0x3a,0x06,0x45,0x54,0x3a,0x0b,0x40,0x70,0x69,0x74,0x63,0x68,0x69,0x69,0x3a,0x0c,0x40,0x76,0x6f,0x6c,0x75,0x6d,0x65,0x69,0x55))
  TeleportPlayer(0,504,1,3,6,0)
  0()



EVENT   7
 PAGE   1
  281(1)
  250(bytes(0x04,0x08,0x6f,0x3a,0x0c,0x52,0x50,0x47,0x3a,0x3a,0x53,0x45,0x08,0x3a,0x0a,0x40,0x6e,0x61,0x6d,0x65,0x49,0x22,0x09,0x4d,0x6f,0x76,0x65,0x06,0x3a,0x06,0x45,0x54,0x3a,0x0b,0x40,0x70,0x69,0x74,0x63,0x68,0x69,0x69,0x3a,0x0c,0x40,0x76,0x6f,0x6c,0x75,0x6d,0x65,0x69,0x55))
  TeleportPlayer(0,504,1,3,6,0)
  0()



EVENT   8
 PAGE   1
  281(1)
  250(bytes(0x04,0x08,0x6f,0x3a,0x0c,0x52,0x50,0x47,0x3a,0x3a,0x53,0x45,0x08,0x3a,0x0a,0x40,0x6e,0x61,0x6d,0x65,0x49,0x22,0x09,0x4d,0x6f,0x76,0x65,0x06,0x3a,0x06,0x45,0x54,0x3a,0x0b,0x40,0x70,0x69,0x74,0x63,0x68,0x69,0x69,0x3a,0x0c,0x40,0x76,0x6f,0x6c,0x75,0x6d,0x65,0x69,0x55))
  TeleportPlayer(0,504,1,3,6,0)
  0()



EVENT   9
 PAGE   1
  281(1)
  250(bytes(0x04,0x08,0x6f,0x3a,0x0c,0x52,0x50,0x47,0x3a,0x3a,0x53,0x45,0x08,0x3a,0x0a,0x40,0x6e,0x61,0x6d,0x65,0x49,0x22,0x09,0x4d,0x6f,0x76,0x65,0x06,0x3a,0x06,0x45,0x54,0x3a,0x0b,0x40,0x70,0x69,0x74,0x63,0x68,0x69,0x69,0x3a,0x0c,0x40,0x76,0x6f,0x6c,0x75,0x6d,0x65,0x69,0x55))
  TeleportPlayer(0,504,1,3,6,0)
  0()



EVENT   10
 PAGE   1
  If(1,1057,0,0,0)
   ChangeVariable(1057,1057,0,0,1)
   ShowMessageFace("",0,0,2,1)
   ShowMessage("\\n<Shrine Maiden>Oh, what am I to do...\nThere are so many stray nekomata here that I can't tell which is our Cat Goddess.")
   ShowMessageFace("",0,0,2,2)
   ShowMessage("\\n<Shrine Maiden>Could you help me identify the Cat Goddess?")
   If(0,6,0)
    ShowMessageFace("sonia_fc2",2,0,2,3)
    ShowMessage("\\n<ソニア>If even you don't know which one she is, I don't think we're going to be able to find her either...")
    0()
   Else()
    ShowMessageFace("ruka_fc1",0,0,2,4)
    ShowMessage("\\n<ルカ>If even you don't know which one she is, then our chances are...")
    0()
   EndIf()
   ShowMessageFace("",0,0,2,5)
   ShowMessage("\\n<Shrine Maiden>If you speak to them, the actual Cat Goddess should respond differently. I'm just not quick enough to chase after and catch them.")
   ShowMessageFace("ruka_fc1",0,0,2,6)
   ShowMessage("\\n<ルカ>Okay then, I guess we'll try talking to them all, one at a time...")
   EndEventProcessing()
   0()
  EndIf()
  If(1,1057,0,1,0)
   ShowMessageFace("",0,0,2,7)
   ShowMessage("\\n<Shrine Maiden>If you speak to them, the actual Cat Goddess should respond differently. I'm just not quick enough to chase after and catch them.")
   EndEventProcessing()
   0()
  EndIf()
  If(1,1057,0,2,0)
   ShowMessageFace("",0,0,2,8)
   ShowMessage("\\n<Shrine Maiden>Did you find her?")
   ShowMessageFace("ruka_fc1",0,0,2,9)
   ShowMessage("\\n<ルカ>Yeah, she's the one right over... there?\nWait, was that the right one?")
   If(0,4,0)
    ShowMessageFace("alice_fc5",0,0,2,10)
    ShowMessage("\\n<アリス>Nngh, we're back to having no idea which one she is.")
    0()
   EndIf()
   If(0,5,0)
    ShowMessageFace("iriasu_fc4",2,0,2,11)
    ShowMessage("\\n<イリアス>And we lost her again.")
    0()
   EndIf()
   ShowMessageFace("",0,0,2,12)
   ShowMessage("\\n<Shrine Maiden>............")
   205(0,bytes(0x04,0x08,0x6f,0x3a,0x13,0x52,0x50,0x47,0x3a,0x3a,0x4d,0x6f,0x76,0x65,0x52,0x6f,0x75,0x74,0x65,0x09,0x3a,0x0c,0x40,0x72,0x65,0x70,0x65,0x61,0x74,0x46,0x3a,0x0f,0x40,0x73,0x6b,0x69,0x70,0x70,0x61,0x62,0x6c,0x65,0x46,0x3a,0x0a,0x40,0x77,0x61,0x69,0x74,0x54,0x3a,0x0a,0x40,0x6c,0x69,0x73,0x74,0x5b,0x0b,0x6f,0x3a,0x15,0x52,0x50,0x47,0x3a,0x3a,0x4d,0x6f,0x76,0x65,0x43,0x6f,0x6d,0x6d,0x61,0x6e,0x64,0x07,0x3a,0x0a,0x40,0x63,0x6f,0x64,0x65,0x69,0x2a,0x3a,0x10,0x40,0x70,0x61,0x72,0x61,0x6d,0x65,0x74,0x65,0x72,0x73,0x5b,0x00,0x6f,0x3b,0x0a,0x07,0x3b,0x0b,0x69,0x09,0x3b,0x0c,0x5b,0x00,0x6f,0x3b,0x0a,0x07,0x3b,0x0b,0x69,0x09,0x3b,0x0c,0x5b,0x00,0x6f,0x3b,0x0a,0x07,0x3b,0x0b,0x69,0x09,0x3b,0x0c,0x5b,0x00,0x6f,0x3b,0x0a,0x07,0x3b,0x0b,0x69,0x17,0x3b,0x0c,0x5b,0x00,0x6f,0x3b,0x0a,0x07,0x3b,0x0b,0x69,0x00,0x3b,0x0c,0x5b,0x00))
   ShowMessageFace("",0,0,2,13)
   ShowMessage("\\n<Shrine Maiden>She's probably... this one.\nYep, she'll do.")
   If(0,6,0)
    ShowMessageFace("sonia_fc3",2,0,2,14)
    ShowMessage("\\n<ソニア>Is that okay!?")
    0()
   Else()
    ShowMessageFace("ruka_fc1",0,0,2,15)
    ShowMessage("\\n<ルカ>Is that okay!?")
    0()
   EndIf()
   ShowMessageFace("nekomata_fc1",2,0,2,16)
   ShowMessage("\\n<Cat Goddess?>Meeeow♪")
   205(0,bytes(0x04,0x08,0x6f,0x3a,0x13,0x52,0x50,0x47,0x3a,0x3a,0x4d,0x6f,0x76,0x65,0x52,0x6f,0x75,0x74,0x65,0x09,0x3a,0x0c,0x40,0x72,0x65,0x70,0x65,0x61,0x74,0x46,0x3a,0x0f,0x40,0x73,0x6b,0x69,0x70,0x70,0x61,0x62,0x6c,0x65,0x46,0x3a,0x0a,0x40,0x77,0x61,0x69,0x74,0x54,0x3a,0x0a,0x40,0x6c,0x69,0x73,0x74,0x5b,0x0b,0x6f,0x3a,0x15,0x52,0x50,0x47,0x3a,0x3a,0x4d,0x6f,0x76,0x65,0x43,0x6f,0x6d,0x6d,0x61,0x6e,0x64,0x07,0x3a,0x0a,0x40,0x63,0x6f,0x64,0x65,0x69,0x06,0x3a,0x10,0x40,0x70,0x61,0x72,0x61,0x6d,0x65,0x74,0x65,0x72,0x73,0x5b,0x00,0x6f,0x3b,0x0a,0x07,0x3b,0x0b,0x69,0x06,0x3b,0x0c,0x5b,0x00,0x6f,0x3b,0x0a,0x07,0x3b,0x0b,0x69,0x06,0x3b,0x0c,0x5b,0x00,0x6f,0x3b,0x0a,0x07,0x3b,0x0b,0x69,0x1e,0x3b,0x0c,0x5b,0x00,0x6f,0x3b,0x0a,0x07,0x3b,0x0b,0x69,0x2b,0x3b,0x0c,0x5b,0x00,0x6f,0x3b,0x0a,0x07,0x3b,0x0b,0x69,0x00,0x3b,0x0c,0x5b,0x00))
   ShowMessageFace("",0,0,2,17)
   ShowMessage("\\n<Shrine Maiden>Thank you so much for all your help...")
   ShowMessageFace("durahan_fc1",0,0,2,18)
   ShowMessage("\\n<アーサー>Well, if the one in charge of the shrine is satisfied, that's good enough for me. The Cat Shrine matter is offically resolved.")
   ChangeVariable(1057,1057,0,0,3)
   If(1,1057,0,3,1)
    If(1,1058,0,1,1)
     If(1,1060,0,1,1)
      If(1,1059,0,3,1)
       ChangeVariable(1055,1055,0,0,3)
       ShowMessageFace("ruka_fc1",0,0,2,19)
       ShowMessage("\\n<ルカ>That means we've solved the problems at all of the shrines. Let's go tell the village elder the good news!")
       EndEventProcessing()
       0()
      EndIf()
      0()
     EndIf()
     0()
    EndIf()
    0()
   EndIf()
   ShowMessageFace("ruka_fc1",0,0,2,20)
   ShowMessage("\\n<ルカ>All right, on to the next shrine!")
   EndEventProcessing()
   0()
  EndIf()
  If(1,1057,0,3,0)
   ShowMessageFace("",0,0,2,21)
   ShowMessage("\\n<Shrine Maiden>Welcome to the Cat Shrine.\nAll the nekomata here are revered as Cat Goddesses.")
   If(0,4,0)
    ShowMessageFace("alice_fc5",3,0,2,22)
    ShowMessage("\\n<アリス>So that's how you solved the problem? I'm starting to see how this village came to worship so many goddesses.")
    0()
   EndIf()
   If(0,5,0)
    ShowMessageFace("iriasu_fc4",2,0,2,23)
    ShowMessage("\\n<イリアス>So that's how you decided to explain away the situation? No wonder this village worships so many goddesses.")
    0()
   EndIf()
   EndEventProcessing()
   0()
  EndIf()
  0()



EVENT   11
 PAGE   1
  ShowMessageFace("nekomata_fc1",0,0,2,1)
  ShowMessage("\\n<Nekomata>Mrrrow...")
  0()



EVENT   12
 PAGE   1
  ShowMessageFace("nekomata_fc1",2,0,2,1)
  ShowMessage("\\n<Nekomata>Meeeow♪")
  0()



EVENT   13
 PAGE   1
  ShowMessageFace("nekomata_fc1",0,0,2,1)
  ShowMessage("\\n<Nekomata>Meow! Meow!")
  0()



EVENT   14
 PAGE   1
  ShowMessageFace("nekomata_fc1",2,0,2,1)
  ShowMessage("\\n<Nekomata>Meow♪")
  0()



EVENT   15
 PAGE   1
  ShowMessageFace("nekomata_fc1",2,0,2,1)
  ShowMessage("\\n<Nekomata>Nyow♪")
  0()



EVENT   16
 PAGE   1
  ShowMessageFace("nekomata_fc1",0,0,2,1)
  ShowMessage("\\n<Nekomata>...Meeeow?")
  0()



EVENT   17
 PAGE   1
  ShowMessageFace("nekomata_fc1",2,0,2,1)
  ShowMessage("\\n<Nekomata>Meeow♪")
  0()



EVENT   18
 PAGE   1
  If(1,1057,0,1,0)
   ShowMessageFace("nekomata_fc1",2,0,2,1)
   ShowMessage("\\n<猫神様>Mrrrow... Mememeow... Meow!")
   ChangeVariable(1057,1057,0,0,2)
   If(0,6,0)
    ShowMessageFace("sonia_fc1",0,0,2,2)
    ShowMessage("\\n<ソニア>This one seems different from the others, doesn't she?")
    0()
   Else()
    ShowMessageFace("ruka_fc1",0,0,2,3)
    ShowMessage("\\n<ルカ>I feel like this one is somehow different...")
    0()
   EndIf()
   If(0,4,0)
    ShowMessageFace("alice_fc5",1,0,2,4)
    ShowMessage("\\n<アリス>Yeah, there's no doubt. This nekomata is the Cat Goddess.")
    0()
   EndIf()
   If(0,5,0)
    ShowMessageFace("iriasu_fc4",0,0,2,5)
    ShowMessage("\\n<イリアス>I believe you are correct. This is the shrine's Cat Goddess.")
    0()
   EndIf()
   ShowMessageFace("durahan_fc1",1,0,2,6)
   ShowMessage("\\n<アーサー>Excellent. Let's go tell the shrine maiden right away.")
   EndEventProcessing()
   0()
  EndIf()
  If(1,1057,0,2,0)
   ShowMessageFace("nekomata_fc1",2,0,2,7)
   ShowMessage("\\n<猫神様>Mrrrow... Mememeow... Meow!")
   EndEventProcessing()
   0()
  EndIf()
  ShowMessageFace("nekomata_fc1",2,0,2,8)
  ShowMessage("\\n<Nekomata>Meow. ♪")
  0()



EVENT   19
 PAGE   1
  ShowMessageFace("nekomata_fc1",2,0,2,1)
  ShowMessage("\\n<Nekomata>Meeeow♪")
  0()



EVENT   20
 PAGE   1
  ShowMessageFace("nekomata_fc1",0,0,2,1)
  ShowMessage("\\n<Nekomata>...meow?")
  0()



EVENT   21
 PAGE   1
  ShowMessageFace("nekomata_fc1",4,0,2,1)
  ShowMessage("\\n<Nekomata>......?")
  0()



EVENT   22
 PAGE   1
  ShowMessageFace("nekomata_fc1",0,0,2,1)
  ShowMessage("\\n<Nekomata>Meow...?")
  0()



EVENT   23
 PAGE   1
  ShowMessageFace("nekomata_fc1",2,0,2,1)
  ShowMessage("\\n<Nekomata>Meeeow♪")
  0()



EVENT   24
 PAGE   1
  ShowMessageFace("nekomata_fc1",2,0,2,1)
  ShowMessage("\\n<Nekomata>Meow!")
  0()



EVENT   25
 PAGE   1
  ShowMessageFace("nekomata_fc1",0,0,2,1)
  ShowMessage("\\n<Nekomata>............")
  0()



EVENT   26
 PAGE   1
  ShowMessageFace("nekomata_fc1",2,0,2,1)
  ShowMessage("\\n<Nekomata>Meeow. ♪")
  0()



EVENT   27
 PAGE   1
  ChangeSelfSwitch("A",0)
  If(0,6,0)
   ShowMessageFace("sonia_fc3",6,0,2,1)
   ShowMessage("\\n<ソニア>Whoa, this place is full of nekomata. ♪")
   0()
  Else()
   ShowMessageFace("ruka_fc1",0,0,2,2)
   ShowMessage("\\n<ルカ>Whoa, look at all the nekomata!")
   0()
  EndIf()
  If(4,222,0)
   ShowMessageFace("nekomata_fc1",2,0,2,3)
   ShowMessage("\\n<たま>Meeeow. ♪")
   0()
  EndIf()
  If(0,4,0)
   ShowMessageFace("alice_fc5",0,0,2,4)
   ShowMessage("\\n<アリス>What's going on here...\nLet's go ask the shrine maiden.")
   0()
  EndIf()
  If(0,5,0)
   ShowMessageFace("iriasu_fc4",5,0,2,5)
   ShowMessage("\\n<イリアス>What in the world is going on here!? Let's go check with the shrine maiden.")
   0()
  EndIf()
  0()
 PAGE   2
  // condition: self-switch A is ON
  0()



EVENT   28
 PAGE   1
  ShowMessageFace("",0,0,2,1)
  ShowMessage("\\n<Nekomata>Zzz...")
  0()
