﻿


EVENT   1
 PAGE   1
  281(1)
  250(bytes(0x04,0x08,0x6f,0x3a,0x0c,0x52,0x50,0x47,0x3a,0x3a,0x53,0x45,0x08,0x3a,0x0a,0x40,0x6e,0x61,0x6d,0x65,0x49,0x22,0x09,0x4d,0x6f,0x76,0x65,0x06,0x3a,0x06,0x45,0x54,0x3a,0x0b,0x40,0x70,0x69,0x74,0x63,0x68,0x69,0x69,0x3a,0x0c,0x40,0x76,0x6f,0x6c,0x75,0x6d,0x65,0x69,0x55))
  TeleportPlayer(0,510,28,9,4,0)
  0()



EVENT   2
 PAGE   1
  281(1)
  250(bytes(0x04,0x08,0x6f,0x3a,0x0c,0x52,0x50,0x47,0x3a,0x3a,0x53,0x45,0x08,0x3a,0x0a,0x40,0x6e,0x61,0x6d,0x65,0x49,0x22,0x09,0x4d,0x6f,0x76,0x65,0x06,0x3a,0x06,0x45,0x54,0x3a,0x0b,0x40,0x70,0x69,0x74,0x63,0x68,0x69,0x69,0x3a,0x0c,0x40,0x76,0x6f,0x6c,0x75,0x6d,0x65,0x69,0x55))
  TeleportPlayer(0,510,28,9,4,0)
  0()



EVENT   3
 PAGE   1
  281(1)
  250(bytes(0x04,0x08,0x6f,0x3a,0x0c,0x52,0x50,0x47,0x3a,0x3a,0x53,0x45,0x08,0x3a,0x0a,0x40,0x6e,0x61,0x6d,0x65,0x49,0x22,0x09,0x4d,0x6f,0x76,0x65,0x06,0x3a,0x06,0x45,0x54,0x3a,0x0b,0x40,0x70,0x69,0x74,0x63,0x68,0x69,0x69,0x3a,0x0c,0x40,0x76,0x6f,0x6c,0x75,0x6d,0x65,0x69,0x55))
  TeleportPlayer(0,510,28,9,4,0)
  0()



EVENT   4
 PAGE   1
  281(1)
  250(bytes(0x04,0x08,0x6f,0x3a,0x0c,0x52,0x50,0x47,0x3a,0x3a,0x53,0x45,0x08,0x3a,0x0a,0x40,0x6e,0x61,0x6d,0x65,0x49,0x22,0x09,0x4d,0x6f,0x76,0x65,0x06,0x3a,0x06,0x45,0x54,0x3a,0x0b,0x40,0x70,0x69,0x74,0x63,0x68,0x69,0x69,0x3a,0x0c,0x40,0x76,0x6f,0x6c,0x75,0x6d,0x65,0x69,0x55))
  TeleportPlayer(0,510,28,9,4,0)
  0()



EVENT   5
 PAGE   1
  281(1)
  250(bytes(0x04,0x08,0x6f,0x3a,0x0c,0x52,0x50,0x47,0x3a,0x3a,0x53,0x45,0x08,0x3a,0x0a,0x40,0x6e,0x61,0x6d,0x65,0x49,0x22,0x09,0x4d,0x6f,0x76,0x65,0x06,0x3a,0x06,0x45,0x54,0x3a,0x0b,0x40,0x70,0x69,0x74,0x63,0x68,0x69,0x69,0x3a,0x0c,0x40,0x76,0x6f,0x6c,0x75,0x6d,0x65,0x69,0x55))
  TeleportPlayer(0,510,28,9,4,0)
  0()



EVENT   6
 PAGE   1
  281(1)
  250(bytes(0x04,0x08,0x6f,0x3a,0x0c,0x52,0x50,0x47,0x3a,0x3a,0x53,0x45,0x08,0x3a,0x0a,0x40,0x6e,0x61,0x6d,0x65,0x49,0x22,0x09,0x4d,0x6f,0x76,0x65,0x06,0x3a,0x06,0x45,0x54,0x3a,0x0b,0x40,0x70,0x69,0x74,0x63,0x68,0x69,0x69,0x3a,0x0c,0x40,0x76,0x6f,0x6c,0x75,0x6d,0x65,0x69,0x55))
  TeleportPlayer(0,510,28,9,4,0)
  0()



EVENT   7
 PAGE   1
  281(1)
  250(bytes(0x04,0x08,0x6f,0x3a,0x0c,0x52,0x50,0x47,0x3a,0x3a,0x53,0x45,0x08,0x3a,0x0a,0x40,0x6e,0x61,0x6d,0x65,0x49,0x22,0x09,0x4d,0x6f,0x76,0x65,0x06,0x3a,0x06,0x45,0x54,0x3a,0x0b,0x40,0x70,0x69,0x74,0x63,0x68,0x69,0x69,0x3a,0x0c,0x40,0x76,0x6f,0x6c,0x75,0x6d,0x65,0x69,0x55))
  TeleportPlayer(0,510,28,9,4,0)
  0()



EVENT   8
 PAGE   1
  ShowMessageFace("",0,0,2,1)
  ShowMessage("\\n<Shrine Maiden>Compared to kitsune, tanuki don't really stand out. As a result, this shrine is the least popular of the four.")
  0()

EVENT   9
 PAGE   1
  ChangeSelfSwitch("A",0)
  ShowMessageFace("youko_fc1",2,0,2,1)
  ShowMessage("\\n<こん>Waaaah!")
  If(0,6,0)
   ShowMessageFace("sonia_fc2",2,0,2,2)
   ShowMessage("\\n<ソニア>Is that a kitsune crying at the Tanuki Shrine? What's going on here?")
   0()
  Else()
   ShowMessageFace("ruka_fc1",0,0,2,3)
   ShowMessage("\\n<ルカ>What in the world happened here...")
   0()
  EndIf()
  If(4,53,0)
   ShowMessageFace("slime_fc1",2,0,2,4)
   ShowMessage("\\n<ライム>Let's hear her out!")
   0()
  EndIf()
  0()
 PAGE   2
  // condition: self-switch A is ON
  0()



EVENT   10
 PAGE   1
  If(1,1059,0,0,0)
   ChangeVariable(1059,1059,0,0,1)
   PictureDisplay(5,"80_youko_st03",0,0,0,0,100,100,0,0)
   PictureMove(5,null,0,0,0,0,100,100,255,0,30,true)
   ShowMessageFace("youko_fc1",2,0,2,1)
   ShowMessage("\\n<こん>Waaaah!")
   If(0,6,0)
    ShowMessageFace("sonia_fc1",4,0,2,2)
    ShowMessage("\\n<ソニア>What's the matter? You can tell your big sister Sonya anything.")
    0()
   Else()
    ShowMessageFace("ruka_fc1",0,0,2,3)
    ShowMessage("\\n<ルカ>What's the matter?")
    0()
   EndIf()
   If(4,53,0)
    ShowMessageFace("slime_fc1",0,0,2,4)
    ShowMessage("\\n<ライム>A friend in need is a friend indeed!")
    0()
   EndIf()
   ShowMessageFace("youko_fc1",2,0,2,5)
   ShowMessage("\\n<こん>Well, well you see...\nLast week, Tanu-chan...")
   221()
   Wait(60)
   PictureClear(5)
   211(0)
   205(0,bytes(0x04,0x08,0x6f,0x3a,0x13,0x52,0x50,0x47,0x3a,0x3a,0x4d,0x6f,0x76,0x65,0x52,0x6f,0x75,0x74,0x65,0x09,0x3a,0x0c,0x40,0x72,0x65,0x70,0x65,0x61,0x74,0x46,0x3a,0x0f,0x40,0x73,0x6b,0x69,0x70,0x70,0x61,0x62,0x6c,0x65,0x46,0x3a,0x0a,0x40,0x77,0x61,0x69,0x74,0x54,0x3a,0x0a,0x40,0x6c,0x69,0x73,0x74,0x5b,0x07,0x6f,0x3a,0x15,0x52,0x50,0x47,0x3a,0x3a,0x4d,0x6f,0x76,0x65,0x43,0x6f,0x6d,0x6d,0x61,0x6e,0x64,0x07,0x3a,0x0a,0x40,0x63,0x6f,0x64,0x65,0x69,0x17,0x3a,0x10,0x40,0x70,0x61,0x72,0x61,0x6d,0x65,0x74,0x65,0x72,0x73,0x5b,0x00,0x6f,0x3b,0x0a,0x07,0x3b,0x0b,0x69,0x00,0x3b,0x0c,0x5b,0x00))
   ChangeSwitch(31,31,0)
   241(bytes(0x04,0x08,0x6f,0x3a,0x0d,0x52,0x50,0x47,0x3a,0x3a,0x42,0x47,0x4d,0x08,0x3a,0x0a,0x40,0x6e,0x61,0x6d,0x65,0x49,0x22,0x13,0x73,0x63,0x65,0x6e,0x65,0x5f,0x6f,0x64,0x61,0x79,0x61,0x6b,0x61,0x31,0x06,0x3a,0x06,0x45,0x54,0x3a,0x0c,0x40,0x76,0x6f,0x6c,0x75,0x6d,0x65,0x69,0x69,0x3a,0x0b,0x40,0x70,0x69,0x74,0x63,0x68,0x69,0x69))
   222()
   PictureDisplay(5,"80_youko_st02",0,0,-150,0,100,100,0,0)
   PictureDisplay(6,"80_mametanuki_st03",0,0,150,0,100,100,0,0)
   PictureMove(5,null,0,0,-150,0,100,100,255,0,30,false)
   PictureMove(6,null,0,0,150,0,100,100,255,0,30,true)
   ShowMessageFace("youko_fc1",0,0,2,6)
   ShowMessage("\\n<こん>Haha! Tanuki are such cowards!")
   ShowMessageFace("mametanuki_fc1",2,0,2,7)
   ShowMessage("\\n<たぬ>I'm no coward!")
   ShowMessageFace("youko_fc1",0,0,2,8)
   ShowMessage("\\n<こん>Go steal the treasure from Orochi's cave then. If you aren't a coward, you'll do it, right?")
   ShowMessageFace("mametanuki_fc1",0,0,2,9)
   ShowMessage("\\n<たぬ>That'll be a piece of cake!")
   PictureClear(5)
   PictureClear(6)
   Wait(30)
   205(11,bytes(0x04,0x08,0x6f,0x3a,0x13,0x52,0x50,0x47,0x3a,0x3a,0x4d,0x6f,0x76,0x65,0x52,0x6f,0x75,0x74,0x65,0x09,0x3a,0x0c,0x40,0x72,0x65,0x70,0x65,0x61,0x74,0x46,0x3a,0x0f,0x40,0x73,0x6b,0x69,0x70,0x70,0x61,0x62,0x6c,0x65,0x46,0x3a,0x0a,0x40,0x77,0x61,0x69,0x74,0x54,0x3a,0x0a,0x40,0x6c,0x69,0x73,0x74,0x5b,0x1c,0x6f,0x3a,0x15,0x52,0x50,0x47,0x3a,0x3a,0x4d,0x6f,0x76,0x65,0x43,0x6f,0x6d,0x6d,0x61,0x6e,0x64,0x07,0x3a,0x0a,0x40,0x63,0x6f,0x64,0x65,0x69,0x2a,0x3a,0x10,0x40,0x70,0x61,0x72,0x61,0x6d,0x65,0x74,0x65,0x72,0x73,0x5b,0x00,0x6f,0x3b,0x0a,0x07,0x3b,0x0b,0x69,0x22,0x3b,0x0c,0x5b,0x06,0x69,0x0a,0x6f,0x3b,0x0a,0x07,0x3b,0x0b,0x69,0x23,0x3b,0x0c,0x5b,0x06,0x69,0x0a,0x6f,0x3b,0x0a,0x07,0x3b,0x0b,0x69,0x06,0x3b,0x0c,0x5b,0x00,0x6f,0x3b,0x0a,0x07,0x3b,0x0b,0x69,0x06,0x3b,0x0c,0x5b,0x00,0x6f,0x3b,0x0a,0x07,0x3b,0x0b,0x69,0x06,0x3b,0x0c,0x5b,0x00,0x6f,0x3b,0x0a,0x07,0x3b,0x0b,0x69,0x07,0x3b,0x0c,0x5b,0x00,0x6f,0x3b,0x0a,0x07,0x3b,0x0b,0x69,0x07,0x3b,0x0c,0x5b,0x00,0x6f,0x3b,0x0a,0x07,0x3b,0x0b,0x69,0x07,0x3b,0x0c,0x5b,0x00,0x6f,0x3b,0x0a,0x07,0x3b,0x0b,0x69,0x07,0x3b,0x0c,0x5b,0x00,0x6f,0x3b,0x0a,0x07,0x3b,0x0b,0x69,0x07,0x3b,0x0c,0x5b,0x00,0x6f,0x3b,0x0a,0x07,0x3b,0x0b,0x69,0x07,0x3b,0x0c,0x5b,0x00,0x6f,0x3b,0x0a,0x07,0x3b,0x0b,0x69,0x07,0x3b,0x0c,0x5b,0x00,0x6f,0x3b,0x0a,0x07,0x3b,0x0b,0x69,0x07,0x3b,0x0c,0x5b,0x00,0x6f,0x3b,0x0a,0x07,0x3b,0x0b,0x69,0x07,0x3b,0x0c,0x5b,0x00,0x6f,0x3b,0x0a,0x07,0x3b,0x0b,0x69,0x09,0x3b,0x0c,0x5b,0x00,0x6f,0x3b,0x0a,0x07,0x3b,0x0b,0x69,0x09,0x3b,0x0c,0x5b,0x00,0x6f,0x3b,0x0a,0x07,0x3b,0x0b,0x69,0x09,0x3b,0x0c,0x5b,0x00,0x6f,0x3b,0x0a,0x07,0x3b,0x0b,0x69,0x07,0x3b,0x0c,0x5b,0x00,0x6f,0x3b,0x0a,0x07,0x3b,0x0b,0x69,0x07,0x3b,0x0c,0x5b,0x00,0x6f,0x3b,0x0a,0x07,0x3b,0x0b,0x69,0x07,0x3b,0x0c,0x5b,0x00,0x6f,0x3b,0x0a,0x07,0x3b,0x0b,0x69,0x2c,0x3b,0x0c,0x5b,0x00,0x6f,0x3b,0x0a,0x07,0x3b,0x0b,0x69,0x00,0x3b,0x0c,0x5b,0x00))
   221()
   Wait(60)
   211(1)
   205(0,bytes(0x04,0x08,0x6f,0x3a,0x13,0x52,0x50,0x47,0x3a,0x3a,0x4d,0x6f,0x76,0x65,0x52,0x6f,0x75,0x74,0x65,0x09,0x3a,0x0c,0x40,0x72,0x65,0x70,0x65,0x61,0x74,0x46,0x3a,0x0f,0x40,0x73,0x6b,0x69,0x70,0x70,0x61,0x62,0x6c,0x65,0x46,0x3a,0x0a,0x40,0x77,0x61,0x69,0x74,0x54,0x3a,0x0a,0x40,0x6c,0x69,0x73,0x74,0x5b,0x07,0x6f,0x3a,0x15,0x52,0x50,0x47,0x3a,0x3a,0x4d,0x6f,0x76,0x65,0x43,0x6f,0x6d,0x6d,0x61,0x6e,0x64,0x07,0x3a,0x0a,0x40,0x63,0x6f,0x64,0x65,0x69,0x1e,0x3a,0x10,0x40,0x70,0x61,0x72,0x61,0x6d,0x65,0x74,0x65,0x72,0x73,0x5b,0x00,0x6f,0x3b,0x0a,0x07,0x3b,0x0b,0x69,0x00,0x3b,0x0c,0x5b,0x00))
   ChangeSwitch(31,31,1)
   222()
   241(bytes(0x04,0x08,0x6f,0x3a,0x0d,0x52,0x50,0x47,0x3a,0x3a,0x42,0x47,0x4d,0x08,0x3a,0x0a,0x40,0x6e,0x61,0x6d,0x65,0x49,0x22,0x0a,0x6d,0x75,0x72,0x61,0x37,0x06,0x3a,0x06,0x45,0x54,0x3a,0x0c,0x40,0x76,0x6f,0x6c,0x75,0x6d,0x65,0x69,0x69,0x3a,0x0b,0x40,0x70,0x69,0x74,0x63,0x68,0x69,0x69))
   PictureDisplay(5,"80_youko_st03",0,0,0,0,100,100,0,0)
   PictureMove(5,null,0,0,0,0,100,100,255,0,30,true)
   ShowMessageFace("youko_fc1",2,0,2,10)
   ShowMessage("\\n<こん>Tanu-chan went into Orochi's cave by himself a week ago and hasn't been seen since...")
   ShowMessageFace("youko_fc1",2,0,2,11)
   ShowMessage("\\n<こん>And it's all my fault! Waaaah!")
   If(0,2317,1)
    If(0,4,0)
     ShowMessageFace("alice_fc5",0,0,2,12)
     ShowMessage("\\n<アリス>Orochi's cave? That's the one visible to the northeast from the village. It's where Yamata no Orochi sleeps...")
     0()
    EndIf()
    If(0,5,0)
     ShowMessageFace("iriasu_fc4",2,0,2,13)
     ShowMessage("\\n<イリアス>Orochi's cave... It is the cave visible to the northeast from the village. The unsavory youma Yamata no Orochi lurks there.")
     0()
    EndIf()
    0()
   Else()
    If(0,4,0)
     ShowMessageFace("alice_fc5",0,0,2,14)
     ShowMessage("\\n<アリス>We already defeated Orochi, but there are other nasty monsters she could have run into there.")
     0()
    EndIf()
    If(0,5,0)
     ShowMessageFace("iriasu_fc4",2,0,2,15)
     ShowMessage("\\n<イリアス>We already defeated Orochi, but there are other nasty monsters she could have run into there.")
     0()
    EndIf()
    0()
   EndIf()
   If(4,53,0)
    ShowMessageFace("slime_fc1",2,0,2,16)
    ShowMessage("\\n<ライム>Let's go save her!")
    0()
   EndIf()
   If(0,2317,1)
    ShowMessageFace("youko_fc1",2,0,2,17)
    ShowMessage("\\n<こん>Yamata no Orochi must have eaten Tanu-chan! She's an irresistible fat ball of meat!")
    0()
   Else()
    ShowMessageFace("youko_fc1",2,0,2,18)
    ShowMessage("\\n<こん>Some nasty monster must have eaten Tanu-chan! She's an irresistible fat ball of meat!")
    0()
   EndIf()
   ShowMessageFace("youko_fc1",2,0,2,19)
   ShowMessage("\\n<こん>And it's all my fault! Waaaah!")
   If(0,6,0)
    ShowMessageFace("sonia_fc1",4,0,2,20)
    ShowMessage("\\n<ソニア>Come on, don't cry.\nWe'll go look for her, okay?")
    0()
   Else()
    ShowMessageFace("ruka_fc1",0,0,2,21)
    ShowMessage("\\n<ルカ>Okay, okay. We'll go and look for her.")
    0()
   EndIf()
   ShowMessageFace("youko_fc1",2,0,2,22)
   ShowMessage("\\n<こん>*sniff* *sniff*\nThank you...")
   If(0,2317,1)
    If(0,4,0)
     ShowMessageFace("alice_fc5",0,0,2,23)
     ShowMessage("\\n<アリス>It's not that I object to helping out, but Yamata no Orochi is a considerably powerful youma.")
     ShowMessageFace("alice_fc5",0,0,2,24)
     ShowMessage("\\n<アリス>It'd be best if we can find the tanuki without running into Orochi. Let's be careful, and whatever you do, don't pick a fight with her.")
     0()
    EndIf()
    If(0,5,0)
     ShowMessageFace("iriasu_fc4",2,0,2,25)
     ShowMessage("\\n<イリアス>No point arguing is there...\nYou should know that Yamata no Orochi is a fearsome youma, though.")
     ShowMessageFace("iriasu_fc4",2,0,2,26)
     ShowMessage("\\n<イリアス>Ideally, we find the tanuki without Orochi noticing us. Do everything to avoid getting into a fight with her...")
     0()
    EndIf()
    If(0,2149,0)
     ShowMessageFace("ashel_fc1",0,0,2,27)
     ShowMessage("\\n<アシェル>What's the right proverb for this situation, milady?")
     ShowMessageFace("bonny_fc1",0,0,2,28)
     ShowMessage("\\n<ボニー>Discretion is the better part of valor! Why did you fill my head with all these old sayings?! I sound like someone's grandma!")
     ShowMessageFace("ashel_fc1",0,0,2,29)
     ShowMessage("\\n<アシェル>You must be full of wisdom to be a pirate queen. Good job remembering the saying. Here's some candy kelp.")
     ShowMessageFace("bonny_fc1",1,0,2,30)
     ShowMessage("\\n<ボニー>Woohoo, candy kelp!")
     0()
    EndIf()
    0()
   EndIf()
   ShowMessageFace("ruka_fc1",0,0,2,31)
   ShowMessage("\\n<ルカ>Okay, off to Orochi's cave!")
   PictureClear(5)
   EndEventProcessing()
   0()
  EndIf()
  If(1,1059,0,1,0)
   PictureDisplay(5,"80_youko_st03",0,0,0,0,100,100,0,0)
   PictureMove(5,null,0,0,0,0,100,100,255,0,30,true)
   ShowMessageFace("youko_fc1",2,0,2,32)
   ShowMessage("\\n<こん>Orochi's cave is northeast of the village. *sniff* Please save Tanu-chan...")
   If(4,53,0)
    ShowMessageFace("slime_fc1",0,0,2,33)
    ShowMessage("\\n<ライム>It'll be all right.\nWe'll go save her!")
    0()
   EndIf()
   PictureClear(5)
   EndEventProcessing()
   0()
  EndIf()
  If(1,1059,0,2,0)
   PictureDisplay(5,"80_youko_st01",0,0,-150,0,100,100,0,0)
   PictureDisplay(6,"80_mametanuki_st01",0,0,150,0,100,100,0,0)
   PictureMove(5,null,0,0,-150,0,100,100,255,0,30,false)
   PictureMove(6,null,0,0,150,0,100,100,255,0,30,true)
   ShowMessageFace("youko_fc1",0,0,2,34)
   ShowMessage("\\n<こん>Thank you so much!\nTanu-chan is back safe and sound!")
   If(4,204,0)
    ShowMessageFace("umiusi_k_fc1",0,0,2,35)
    ShowMessage("\\n<ステイシー>Fufu, all's well that ends well. ♪")
    0()
   EndIf()
   If(0,6,0)
    ShowMessageFace("sonia_fc1",0,0,2,36)
    ShowMessage("\\n<ソニア>No more reckless behavior from now on, okay?")
    0()
   Else()
    ShowMessageFace("ruka_fc1",0,0,2,37)
    ShowMessage("\\n<ルカ>Be more careful from now on.")
    0()
   EndIf()
   ShowMessageFace("mametanuki_fc1",0,0,2,38)
   ShowMessage("\\n<たぬ>I'll definitely be careful!")
   If(4,53,0)
    ShowMessageFace("slime_fc1",0,0,2,39)
    ShowMessage("\\n<ライム>This all reminded me of when I first met Luka. He came to my rescue when I was alone and crying.")
    0()
   EndIf()
   PictureClear(5)
   PictureClear(6)
   ShowMessageFace("durahan_fc1",1,0,2,40)
   ShowMessage("\\n<アーサー>All in all, a happy ending to the problem at the Tanuki Shrine.")
   ChangeVariable(1059,1059,0,0,3)
   If(1,1057,0,3,1)
    If(1,1058,0,1,1)
     If(1,1060,0,1,1)
      If(1,1059,0,3,1)
       ChangeVariable(1055,1055,0,0,3)
       ShowMessageFace("ruka_fc1",0,0,2,41)
       ShowMessage("\\n<ルカ>Then we've taken care of all the problems at the four shrines. Let's go give the village elder the good news!")
       EndEventProcessing()
       0()
      EndIf()
      0()
     EndIf()
     0()
    EndIf()
    0()
   EndIf()
   ShowMessageFace("ruka_fc1",0,0,2,42)
   ShowMessage("\\n<ルカ>All right, on to the next shrine!")
   EndEventProcessing()
   0()
  EndIf()
  0()
 PAGE   2
  // condition: variable 1059 >= 3
  PictureDisplay(5,"80_youko_st01",0,0,-150,0,100,100,0,0)
  PictureDisplay(6,"80_mametanuki_st01",0,0,150,0,100,100,0,0)
  PictureMove(5,null,0,0,-150,0,100,100,255,0,30,false)
  PictureMove(6,null,0,0,150,0,100,100,255,0,30,true)
  ShowMessageFace("youko_fc1",0,0,2,1)
  ShowMessage("\\n<こん>Pom poko tanuki! Cowardly tanuki!")
  ShowMessageFace("mametanuki_fc1",0,0,2,2)
  ShowMessage("\\n<たぬ>Kon kon kitsune! Malicious kitsune!")
  If(0,6,0)
   ShowMessageFace("sonia_fc4",0,0,2,3)
   ShowMessage("\\n<ソニア>......")
   0()
  Else()
   ShowMessageFace("ruka_fc1",0,0,2,4)
   ShowMessage("\\n<ルカ>......")
   0()
  EndIf()
  PictureClear(5)
  PictureClear(6)
  0()



EVENT   11
 PAGE   1
  // condition: switch 31 is ON
  0()
 PAGE   2
  // condition: variable 1059 >= 2
  PictureDisplay(5,"80_mametanuki_st01",0,0,0,0,100,100,0,0)
  PictureMove(5,null,0,0,0,0,100,100,255,0,30,true)
  ShowMessageFace("mametanuki_fc1",0,0,2,1)
  ShowMessage("\\n<たぬ>Thanks so much for rescuing me!")
  PictureClear(5)
  0()
 PAGE   3
  // condition: variable 1059 >= 3
  PictureDisplay(5,"80_youko_st01",0,0,-150,0,100,100,0,0)
  PictureDisplay(6,"80_mametanuki_st01",0,0,150,0,100,100,0,0)
  PictureMove(5,null,0,0,-150,0,100,100,255,0,30,false)
  PictureMove(6,null,0,0,150,0,100,100,255,0,30,true)
  ShowMessageFace("youko_fc1",0,0,2,1)
  ShowMessage("\\n<こん>Pom poko tanuki! Cowardly tanuki!")
  ShowMessageFace("mametanuki_fc1",0,0,2,2)
  ShowMessage("\\n<たぬ>Kon kon kitsune! Malicious kitsune!")
  If(0,6,0)
   ShowMessageFace("sonia_fc4",0,0,2,3)
   ShowMessage("\\n<ソニア>......")
   0()
  Else()
   ShowMessageFace("ruka_fc1",0,0,2,4)
   ShowMessage("\\n<ルカ>......")
   0()
  EndIf()
  PictureClear(5)
  PictureClear(6)
  0()


