﻿
DisplayName "ポケット魔王城 3F"



EVENT   1
 PAGE   1
  0()



EVENT   2
 PAGE   1
  0()



EVENT   3
 PAGE   1
  205(23,bytes(0x04,0x08,0x6f,0x3a,0x13,0x52,0x50,0x47,0x3a,0x3a,0x4d,0x6f,0x76,0x65,0x52,0x6f,0x75,0x74,0x65,0x09,0x3a,0x0c,0x40,0x72,0x65,0x70,0x65,0x61,0x74,0x46,0x3a,0x0f,0x40,0x73,0x6b,0x69,0x70,0x70,0x61,0x62,0x6c,0x65,0x46,0x3a,0x0a,0x40,0x77,0x61,0x69,0x74,0x54,0x3a,0x0a,0x40,0x6c,0x69,0x73,0x74,0x5b,0x09,0x6f,0x3a,0x15,0x52,0x50,0x47,0x3a,0x3a,0x4d,0x6f,0x76,0x65,0x43,0x6f,0x6d,0x6d,0x61,0x6e,0x64,0x07,0x3a,0x0a,0x40,0x63,0x6f,0x64,0x65,0x69,0x06,0x3a,0x10,0x40,0x70,0x61,0x72,0x61,0x6d,0x65,0x74,0x65,0x72,0x73,0x5b,0x00,0x6f,0x3b,0x0a,0x07,0x3b,0x0b,0x69,0x06,0x3b,0x0c,0x5b,0x00,0x6f,0x3b,0x0a,0x07,0x3b,0x0b,0x69,0x06,0x3b,0x0c,0x5b,0x00,0x6f,0x3b,0x0a,0x07,0x3b,0x0b,0x69,0x00,0x3b,0x0c,0x5b,0x00))
  ShowMessageFace("chrom_fc2",5,0,2,1)
  ShowMessage("【クロム】")
  ShowMessage("プロメスティン！　プロメスティーン！")
  205(2,bytes(0x04,0x08,0x6f,0x3a,0x13,0x52,0x50,0x47,0x3a,0x3a,0x4d,0x6f,0x76,0x65,0x52,0x6f,0x75,0x74,0x65,0x09,0x3a,0x0c,0x40,0x72,0x65,0x70,0x65,0x61,0x74,0x46,0x3a,0x0f,0x40,0x73,0x6b,0x69,0x70,0x70,0x61,0x62,0x6c,0x65,0x46,0x3a,0x0a,0x40,0x77,0x61,0x69,0x74,0x54,0x3a,0x0a,0x40,0x6c,0x69,0x73,0x74,0x5b,0x07,0x6f,0x3a,0x15,0x52,0x50,0x47,0x3a,0x3a,0x4d,0x6f,0x76,0x65,0x43,0x6f,0x6d,0x6d,0x61,0x6e,0x64,0x07,0x3a,0x0a,0x40,0x63,0x6f,0x64,0x65,0x69,0x18,0x3a,0x10,0x40,0x70,0x61,0x72,0x61,0x6d,0x65,0x74,0x65,0x72,0x73,0x5b,0x00,0x6f,0x3b,0x0a,0x07,0x3b,0x0b,0x69,0x00,0x3b,0x0c,0x5b,0x00))
  ShowMessageFace("stein_fc2",0,0,2,2)
  ShowMessage("【プロメスティン】")
  ShowMessage("……はい、なんでしょう？")
  ShowMessageFace("chrom_fc2",5,0,2,3)
  ShowMessage("【クロム】")
  ShowMessage("差出人不明の、変な手紙が届いたのじゃが……")
  ShowMessage("お主のところにも、届いておらんか？")
  ShowMessageFace("stein_fc2",0,0,2,4)
  ShowMessage("【プロメスティン】")
  ShowMessage("ええ……先日、私の元にも送られてきました。")
  ShowMessage("おそらく同じ差出人でしょうね。")
  ShowMessageFace("chrom_fc2",5,0,2,5)
  ShowMessage("【クロム】")
  ShowMessage("リリィやルシアの元にも、届いてるようじゃ。")
  ShowMessage("儂を筆頭に、頭の良い奴のみに送られているみたいじゃな。")
  ShowMessageFace("stein_fc2",0,0,2,6)
  ShowMessage("【プロメスティン】")
  ShowMessage("自然科学、魔導科学、錬金術などの分野において、")
  ShowMessage("なんらかの業績を残している者が送付対象と思われます。")
  ShowMessageFace("stein_fc2",0,0,2,7)
  ShowMessage("【プロメスティン】")
  ShowMessage("私も、科学誌に寄稿していますし……")
  ShowMessage("クロムは、技術の名門アルテイスト家の末裔ですから。")
  ShowMessageFace("chrom_fc2",5,0,2,8)
  ShowMessage("【クロム】")
  ShowMessage("でも、手紙の中身がさっぱり意味分からんのじゃ。")
  ShowMessage("数字がズラズラ羅列してあるだけで、全く読めん……")
  ShowMessageFace("stein_fc2",0,0,2,9)
  ShowMessage("【プロメスティン】")
  ShowMessage("これは、絶対擬素数と離散対数を用いた高度な暗号です。")
  ShowMessage("私でも、解くのに15時間かかりました。")
  ShowMessageFace("chrom_fc2",5,0,2,10)
  ShowMessage("【クロム】")
  ShowMessage("なんと、暗号だったとは！")
  ShowMessage("儂はたぬきの暗号しか使えんからのう……")
  ShowMessageFace("stein_fc2",0,0,2,11)
  ShowMessage("【プロメスティン】")
  ShowMessage("それは、秘匿性に問題がありますね……")
  ShowMessageFace("chrom_fc2",1,0,2,12)
  ShowMessage("【クロム】")
  ShowMessage("……して、手紙の内容は！？")
  ShowMessageFace("stein_fc2",1,0,2,13)
  ShowMessage("【プロメスティン】")
  ShowMessage("……ヒ・ミ・ツ♪")
  ShowMessageFace("chrom_fc2",7,0,2,14)
  ShowMessage("【クロム】")
  ShowMessage("ちぇー……")
  ShowMessage("いいもん、自分で解いてみせるのじゃ！")
  205(23,bytes(0x04,0x08,0x6f,0x3a,0x13,0x52,0x50,0x47,0x3a,0x3a,0x4d,0x6f,0x76,0x65,0x52,0x6f,0x75,0x74,0x65,0x09,0x3a,0x0c,0x40,0x72,0x65,0x70,0x65,0x61,0x74,0x46,0x3a,0x0f,0x40,0x73,0x6b,0x69,0x70,0x70,0x61,0x62,0x6c,0x65,0x46,0x3a,0x0a,0x40,0x77,0x61,0x69,0x74,0x54,0x3a,0x0a,0x40,0x6c,0x69,0x73,0x74,0x5b,0x0a,0x6f,0x3a,0x15,0x52,0x50,0x47,0x3a,0x3a,0x4d,0x6f,0x76,0x65,0x43,0x6f,0x6d,0x6d,0x61,0x6e,0x64,0x07,0x3a,0x0a,0x40,0x63,0x6f,0x64,0x65,0x69,0x09,0x3a,0x10,0x40,0x70,0x61,0x72,0x61,0x6d,0x65,0x74,0x65,0x72,0x73,0x5b,0x00,0x6f,0x3b,0x0a,0x07,0x3b,0x0b,0x69,0x09,0x3b,0x0c,0x5b,0x00,0x6f,0x3b,0x0a,0x07,0x3b,0x0b,0x69,0x09,0x3b,0x0c,0x5b,0x00,0x6f,0x3b,0x0a,0x07,0x3b,0x0b,0x69,0x2c,0x3b,0x0c,0x5b,0x00,0x6f,0x3b,0x0a,0x07,0x3b,0x0b,0x69,0x00,0x3b,0x0c,0x5b,0x00))
  ShowMessageFace("stein_fc2",0,0,2,15)
  ShowMessage("【プロメスティン】")
  ShowMessage("さて……")
  205(2,bytes(0x04,0x08,0x6f,0x3a,0x13,0x52,0x50,0x47,0x3a,0x3a,0x4d,0x6f,0x76,0x65,0x52,0x6f,0x75,0x74,0x65,0x09,0x3a,0x0c,0x40,0x72,0x65,0x70,0x65,0x61,0x74,0x46,0x3a,0x0f,0x40,0x73,0x6b,0x69,0x70,0x70,0x61,0x62,0x6c,0x65,0x46,0x3a,0x0a,0x40,0x77,0x61,0x69,0x74,0x54,0x3a,0x0a,0x40,0x6c,0x69,0x73,0x74,0x5b,0x07,0x6f,0x3a,0x15,0x52,0x50,0x47,0x3a,0x3a,0x4d,0x6f,0x76,0x65,0x43,0x6f,0x6d,0x6d,0x61,0x6e,0x64,0x07,0x3a,0x0a,0x40,0x63,0x6f,0x64,0x65,0x69,0x16,0x3a,0x10,0x40,0x70,0x61,0x72,0x61,0x6d,0x65,0x74,0x65,0x72,0x73,0x5b,0x00,0x6f,0x3b,0x0a,0x07,0x3b,0x0b,0x69,0x00,0x3b,0x0c,0x5b,0x00))
  ShowMessageFace("stein_fc2",0,0,2,16)
  ShowMessage("【プロメスティン】")
  ShowMessage("あの手紙にあった周波数に合わせて……")
  ShowMessage("では、通信開始……")
  ShowMessageFace("stein_fc2",0,0,2,17)
  ShowMessage("【プロメスティン】")
  ShowMessage("……………………")
  241(bytes(0x04,0x08,0x6f,0x3a,0x0d,0x52,0x50,0x47,0x3a,0x3a,0x42,0x47,0x4d,0x08,0x3a,0x0a,0x40,0x6e,0x61,0x6d,0x65,0x49,0x22,0x0a,0x6b,0x69,0x6b,0x69,0x32,0x06,0x3a,0x06,0x45,0x54,0x3a,0x0c,0x40,0x76,0x6f,0x6c,0x75,0x6d,0x65,0x69,0x69,0x3a,0x0b,0x40,0x70,0x69,0x74,0x63,0x68,0x69,0x69))
  ShowMessageFace("",0,0,2,18)
  ShowMessage("【？？？】")
  ShowMessage("……解読おめでとう。")
  ShowMessage("君は、我々に接触できる資格を得た。")
  ShowMessageFace("stein_fc2",0,0,2,19)
  ShowMessage("【プロメスティン】")
  ShowMessage("あなたは、いったい……？")
  ShowMessage("「我々」ということは、組織ですか？")
  ShowMessageFace("",0,0,2,20)
  ShowMessage("【？？？】")
  ShowMessage("我々は、「智の同盟」。")
  ShowMessage("これより君に、三つの質問をさせてもらおう。")
  ShowMessageFace("stein_fc2",0,0,2,21)
  ShowMessage("【プロメスティン】")
  ShowMessage("三つの質問……入団試験のようなものですか？")
  ShowMessage("分かりました、質問を受けます。")
  ShowMessageFace(binary"",0,0,2,22)
  ShowMessage("【？？？】")
  ShowMessage("話が早くて助かる。")
  ShowMessage("それでは、第一の質問だ。")
  ShowMessageFace("",0,0,2,23)
  ShowMessage("【？？？】")
  ShowMessage("二十六次元DSR平面に超対称な動的クラックを開く場合……")
  ShowMessage("その適切な手段を、三つ答えよ。")
  ShowMessageFace("stein_fc2",2,0,2,24)
  ShowMessage("【プロメスティン】")
  ShowMessage("えっと、まずテルン粒子のハドロン衝突……")
  ShowMessage("それにDSR場の偏位を乱れさせるとか……")
  ShowMessageFace("stein_fc2",2,0,2,25)
  ShowMessage("【プロメスティン】")
  ShowMessage("……二つだけです。")
  ShowMessage("あと一つは思いつきません……")
  ShowMessageFace("",0,0,2,26)
  ShowMessage("【？？？】")
  ShowMessage("それでは、第二の質問だ。")
  ShowMessage("天使の多能性幹細胞を作り出す方法を二つ答えよ。")
  ShowMessageFace("stein_fc2",2,0,2,27)
  ShowMessage("【プロメスティン】")
  ShowMessage("えっ……？　そんな事が可能なのですか……！？")
  ShowMessageFace("",0,0,2,28)
  ShowMessage("【？？？】")
  ShowMessage("……………………")
  ShowMessageFace("",0,0,2,29)
  ShowMessage("【？？？】")
  ShowMessage("……では、最後の質問だ。")
  ShowMessage("今の君が「智の同盟」に加わり、貢献できると思うか？")
  ShowMessageFace("stein_fc2",2,0,2,30)
  ShowMessage("【プロメスティン】")
  ShowMessage("えっと……たぶん、私は……")
  ShowMessageFace("",0,0,2,31)
  ShowMessage("【？？？】")
  ShowMessage("……たぶん？　君も科学者なのだろう？")
  ShowMessage("YesかNoかで答えよ。")
  ShowMessageFace("stein_fc2",0,0,2,32)
  ShowMessage("【プロメスティン】")
  ShowMessage("Noです。")
  ShowMessage("今の私では、「智の同盟」に何の貢献もできないでしょう。")
  ShowMessageFace("",0,0,2,33)
  ShowMessage("【？？？】")
  ShowMessage("……よろしい。")
  ShowMessage("今の君は、我々の同志になるにはまだ早い。")
  ShowMessageFace("stein_fc2",0,0,2,34)
  ShowMessage("【プロメスティン】")
  ShowMessage("はい……")
  ShowMessageFace("",0,0,2,35)
  ShowMessage("【？？？】")
  ShowMessage("だが、まだ君は若い。")
  ShowMessage("これから伸びる余地は大いにある……")
  ShowMessageFace("",0,0,2,36)
  ShowMessage("【？？？】")
  ShowMessage("己が「智の同盟」に相応しいと思った時、また連絡してくるがいい。")
  ShowMessage("待っているぞ、プロメスティン……")
  ShowMessageFace("",0,0,2,37)
  ShowMessage("【？？？】")
  ShowMessage("それでは、通信を終わる……")
  ShowMessageFace("stein_fc2",2,0,2,38)
  ShowMessage("【プロメスティン】")
  ShowMessage("えっ……？")
  ShowMessage("私、名乗っていないのに……")
  ShowMessageFace("stein_fc2",0,0,2,39)
  ShowMessage("【プロメスティン】")
  ShowMessage("……………………")
  241(bytes(0x04,0x08,0x6f,0x3a,0x0d,0x52,0x50,0x47,0x3a,0x3a,0x42,0x47,0x4d,0x08,0x3a,0x0a,0x40,0x6e,0x61,0x6d,0x65,0x49,0x22,0x14,0x73,0x63,0x65,0x6e,0x65,0x5f,0x65,0x70,0x69,0x6c,0x6f,0x67,0x75,0x65,0x32,0x06,0x3a,0x06,0x45,0x54,0x3a,0x0c,0x40,0x76,0x6f,0x6c,0x75,0x6d,0x65,0x69,0x69,0x3a,0x0b,0x40,0x70,0x69,0x74,0x63,0x68,0x69,0x69))
  205(2,bytes(0x04,0x08,0x6f,0x3a,0x13,0x52,0x50,0x47,0x3a,0x3a,0x4d,0x6f,0x76,0x65,0x52,0x6f,0x75,0x74,0x65,0x09,0x3a,0x0c,0x40,0x72,0x65,0x70,0x65,0x61,0x74,0x46,0x3a,0x0f,0x40,0x73,0x6b,0x69,0x70,0x70,0x61,0x62,0x6c,0x65,0x46,0x3a,0x0a,0x40,0x77,0x61,0x69,0x74,0x54,0x3a,0x0a,0x40,0x6c,0x69,0x73,0x74,0x5b,0x08,0x6f,0x3a,0x15,0x52,0x50,0x47,0x3a,0x3a,0x4d,0x6f,0x76,0x65,0x43,0x6f,0x6d,0x6d,0x61,0x6e,0x64,0x07,0x3a,0x0a,0x40,0x63,0x6f,0x64,0x65,0x69,0x22,0x3a,0x10,0x40,0x70,0x61,0x72,0x61,0x6d,0x65,0x74,0x65,0x72,0x73,0x5b,0x06,0x69,0x0b,0x6f,0x3b,0x0a,0x07,0x3b,0x0b,0x69,0x23,0x3b,0x0c,0x5b,0x06,0x69,0x0a,0x6f,0x3b,0x0a,0x07,0x3b,0x0b,0x69,0x00,0x3b,0x0c,0x5b,0x00))
  ShowMessageFace("stein_fc2",1,0,2,40)
  ShowMessage("【プロメスティン】")
  ShowMessage("それじゃあまず、DSR平面への動的クラック実験からです！")
  ShowMessage("さあ、バリバリ進めますよー！")
  205(23,bytes(0x04,0x08,0x6f,0x3a,0x13,0x52,0x50,0x47,0x3a,0x3a,0x4d,0x6f,0x76,0x65,0x52,0x6f,0x75,0x74,0x65,0x09,0x3a,0x0c,0x40,0x72,0x65,0x70,0x65,0x61,0x74,0x46,0x3a,0x0f,0x40,0x73,0x6b,0x69,0x70,0x70,0x61,0x62,0x6c,0x65,0x46,0x3a,0x0a,0x40,0x77,0x61,0x69,0x74,0x54,0x3a,0x0a,0x40,0x6c,0x69,0x73,0x74,0x5b,0x08,0x6f,0x3a,0x15,0x52,0x50,0x47,0x3a,0x3a,0x4d,0x6f,0x76,0x65,0x43,0x6f,0x6d,0x6d,0x61,0x6e,0x64,0x07,0x3a,0x0a,0x40,0x63,0x6f,0x64,0x65,0x69,0x2d,0x3a,0x10,0x40,0x70,0x61,0x72,0x61,0x6d,0x65,0x74,0x65,0x72,0x73,0x5b,0x00,0x6f,0x3b,0x0a,0x07,0x3b,0x0b,0x69,0x06,0x3b,0x0c,0x5b,0x00,0x6f,0x3b,0x0a,0x07,0x3b,0x0b,0x69,0x00,0x3b,0x0c,0x5b,0x00))
  ShowMessageFace("chrom_fc2",1,0,2,41)
  ShowMessage("【クロム】")
  ShowMessage("おおっ！？　なんじゃ、張り切っておるな！")
  ShowMessageFace("stein_fc2",1,0,2,42)
  ShowMessage("【プロメスティン】")
  ShowMessage("あっ、ちょうど良いところに！")
  ShowMessage("天使の多能性幹細胞を先にやりましょう、手伝って下さい！")
  ShowMessageFace("chrom_fc2",5,0,2,43)
  ShowMessage("【クロム】")
  ShowMessage("えっ、天使の万能細胞……？")
  ShowMessage("そんなもん、無理じゃろう……")
  ShowMessageFace("stein_fc2",1,0,2,44)
  ShowMessage("【プロメスティン】")
  ShowMessage("ところが、先駆者がいるようなんです！")
  ShowMessage("私達も、遅れを取っていられませんよ！")
  205(23,bytes(0x04,0x08,0x6f,0x3a,0x13,0x52,0x50,0x47,0x3a,0x3a,0x4d,0x6f,0x76,0x65,0x52,0x6f,0x75,0x74,0x65,0x09,0x3a,0x0c,0x40,0x72,0x65,0x70,0x65,0x61,0x74,0x46,0x3a,0x0f,0x40,0x73,0x6b,0x69,0x70,0x70,0x61,0x62,0x6c,0x65,0x46,0x3a,0x0a,0x40,0x77,0x61,0x69,0x74,0x46,0x3a,0x0a,0x40,0x6c,0x69,0x73,0x74,0x5b,0x0b,0x6f,0x3a,0x15,0x52,0x50,0x47,0x3a,0x3a,0x4d,0x6f,0x76,0x65,0x43,0x6f,0x6d,0x6d,0x61,0x6e,0x64,0x07,0x3a,0x0a,0x40,0x63,0x6f,0x64,0x65,0x69,0x22,0x3a,0x10,0x40,0x70,0x61,0x72,0x61,0x6d,0x65,0x74,0x65,0x72,0x73,0x5b,0x06,0x69,0x0a,0x6f,0x3b,0x0a,0x07,0x3b,0x0b,0x69,0x23,0x3b,0x0c,0x5b,0x06,0x69,0x09,0x6f,0x3b,0x0a,0x07,0x3b,0x0b,0x69,0x06,0x3b,0x0c,0x5b,0x00,0x6f,0x3b,0x0a,0x07,0x3b,0x0b,0x69,0x07,0x3b,0x0c,0x5b,0x00,0x6f,0x3b,0x0a,0x07,0x3b,0x0b,0x69,0x06,0x3b,0x0c,0x5b,0x00,0x6f,0x3b,0x0a,0x07,0x3b,0x0b,0x69,0x00,0x3b,0x0c,0x5b,0x00))
  ShowMessageFace("chrom_fc2",1,0,2,45)
  ShowMessage("【クロム】")
  ShowMessage("なんと、それはゾンビ技術にも生かせそうじゃ！")
  ShowMessage("共にしばらく風呂抜きじゃのう！")
  ShowMessageFace("stein_fc2",1,0,2,46)
  ShowMessage("【プロメスティン】")
  ShowMessage("ええ、風呂も食事も後回しです！")
  ShowMessage("まだまだ、やるべき事が山積みですよ！")
  ShowMessageFace("chrom_fc2",1,0,2,47)
  ShowMessage("【クロム】")
  ShowMessage("リリィとルシアも呼ぶか？")
  ShowMessage("生物分子工学ならば、リリィが得意分野じゃろう。")
  ShowMessageFace("stein_fc2",1,0,2,48)
  ShowMessage("【プロメスティン】")
  ShowMessage("はい、こちらも智を総動員しましょう！")
  ShowMessage("いざ、求道の高みに突き進みますよ！")
  205(2,bytes(0x04,0x08,0x6f,0x3a,0x13,0x52,0x50,0x47,0x3a,0x3a,0x4d,0x6f,0x76,0x65,0x52,0x6f,0x75,0x74,0x65,0x09,0x3a,0x0c,0x40,0x72,0x65,0x70,0x65,0x61,0x74,0x54,0x3a,0x0f,0x40,0x73,0x6b,0x69,0x70,0x70,0x61,0x62,0x6c,0x65,0x46,0x3a,0x0a,0x40,0x77,0x61,0x69,0x74,0x46,0x3a,0x0a,0x40,0x6c,0x69,0x73,0x74,0x5b,0x0c,0x6f,0x3a,0x15,0x52,0x50,0x47,0x3a,0x3a,0x4d,0x6f,0x76,0x65,0x43,0x6f,0x6d,0x6d,0x61,0x6e,0x64,0x07,0x3a,0x0a,0x40,0x63,0x6f,0x64,0x65,0x69,0x06,0x3a,0x10,0x40,0x70,0x61,0x72,0x61,0x6d,0x65,0x74,0x65,0x72,0x73,0x5b,0x00,0x6f,0x3b,0x0a,0x07,0x3b,0x0b,0x69,0x16,0x3b,0x0c,0x5b,0x00,0x6f,0x3b,0x0a,0x07,0x3b,0x0b,0x69,0x14,0x3b,0x0c,0x5b,0x06,0x69,0x23,0x6f,0x3b,0x0a,0x07,0x3b,0x0b,0x69,0x09,0x3b,0x0c,0x5b,0x00,0x6f,0x3b,0x0a,0x07,0x3b,0x0b,0x69,0x16,0x3b,0x0c,0x5b,0x00,0x6f,0x3b,0x0a,0x07,0x3b,0x0b,0x69,0x14,0x3b,0x0c,0x5b,0x06,0x69,0x23,0x6f,0x3b,0x0a,0x07,0x3b,0x0b,0x69,0x00,0x3b,0x0c,0x5b,0x00))
  205(23,bytes(0x04,0x08,0x6f,0x3a,0x13,0x52,0x50,0x47,0x3a,0x3a,0x4d,0x6f,0x76,0x65,0x52,0x6f,0x75,0x74,0x65,0x09,0x3a,0x0c,0x40,0x72,0x65,0x70,0x65,0x61,0x74,0x54,0x3a,0x0f,0x40,0x73,0x6b,0x69,0x70,0x70,0x61,0x62,0x6c,0x65,0x46,0x3a,0x0a,0x40,0x77,0x61,0x69,0x74,0x46,0x3a,0x0a,0x40,0x6c,0x69,0x73,0x74,0x5b,0x10,0x6f,0x3a,0x15,0x52,0x50,0x47,0x3a,0x3a,0x4d,0x6f,0x76,0x65,0x43,0x6f,0x6d,0x6d,0x61,0x6e,0x64,0x07,0x3a,0x0a,0x40,0x63,0x6f,0x64,0x65,0x69,0x07,0x3a,0x10,0x40,0x70,0x61,0x72,0x61,0x6d,0x65,0x74,0x65,0x72,0x73,0x5b,0x00,0x6f,0x3b,0x0a,0x07,0x3b,0x0b,0x69,0x07,0x3b,0x0c,0x5b,0x00,0x6f,0x3b,0x0a,0x07,0x3b,0x0b,0x69,0x15,0x3b,0x0c,0x5b,0x00,0x6f,0x3b,0x0a,0x07,0x3b,0x0b,0x69,0x14,0x3b,0x0c,0x5b,0x06,0x69,0x23,0x6f,0x3b,0x0a,0x07,0x3b,0x0b,0x69,0x08,0x3b,0x0c,0x5b,0x00,0x6f,0x3b,0x0a,0x07,0x3b,0x0b,0x69,0x15,0x3b,0x0c,0x5b,0x00,0x6f,0x3b,0x0a,0x07,0x3b,0x0b,0x69,0x14,0x3b,0x0c,0x5b,0x06,0x69,0x23,0x6f,0x3b,0x0a,0x07,0x3b,0x0b,0x69,0x08,0x3b,0x0c,0x5b,0x00,0x6f,0x3b,0x0a,0x07,0x3b,0x0b,0x69,0x15,0x3b,0x0c,0x5b,0x00,0x6f,0x3b,0x0a,0x07,0x3b,0x0b,0x69,0x14,0x3b,0x0c,0x5b,0x06,0x69,0x23,0x6f,0x3b,0x0a,0x07,0x3b,0x0b,0x69,0x00,0x3b,0x0c,0x5b,0x00))
  Wait(120)
  242(2)
  221()
  Wait(120)
  TeleportPlayer(0,836,1,0,0,2)
  222()
  0()



EVENT   4
 PAGE   1
  0()

EVENT   7
 PAGE   1
  0()



EVENT   8
 PAGE   1
  0()



EVENT   9
 PAGE   1
  0()



EVENT   23
 PAGE   1
  0()


