﻿// EVENT 4316
Name "Mimic Girl 1"

If(0,25,1)
 221()
 PictureClear(5)
 PictureClear(6)
 ShowMessageFace("",0,0,2,1)
 ShowMessage("......")
 242(2)
 Wait(120)
 241(bytes(0x04,0x08,0x6f,0x3a,0x0d,0x52,0x50,0x47,0x3a,0x3a,0x42,0x47,0x4d,0x08,0x3a,0x0a,0x40,0x6e,0x61,0x6d,0x65,0x49,0x22,0x0c,0x63,0x61,0x73,0x74,0x6c,0x65,0x36,0x06,0x3a,0x06,0x45,0x54,0x3a,0x0c,0x40,0x76,0x6f,0x6c,0x75,0x6d,0x65,0x69,0x69,0x3a,0x0b,0x40,0x70,0x69,0x74,0x63,0x68,0x69,0x69))
 EndEventProcessing()
 0()
EndIf()
PictureDisplay(5,"80_mimic_st01",0,0,0,0,100,100,255,0)
ShowMessageFace("mimic_fc1",0,0,2,2)
ShowMessage("\\n<Minelli>Hey, Luka...\nHow about coming inside my treasure chest?")
ShowMessageFace("",0,0,2,3)
ShowMessage("\\n<Luka>Well, maybe just for a minute...")
ShowMessageFace("mimic_fc1",0,0,2,4)
ShowMessage("\\n<Minelli>Fufu, alright.\nHoora, come on in then.")
250(bytes(0x04,0x08,0x6f,0x3a,0x0c,0x52,0x50,0x47,0x3a,0x3a,0x53,0x45,0x08,0x3a,0x0a,0x40,0x6e,0x61,0x6d,0x65,0x49,0x22,0x13,0x6d,0x6f,0x6e,0x5f,0x65,0x72,0x6f,0x5f,0x73,0x6c,0x69,0x6d,0x65,0x33,0x06,0x3a,0x06,0x45,0x54,0x3a,0x0b,0x40,0x70,0x69,0x74,0x63,0x68,0x69,0x69,0x3a,0x0c,0x40,0x76,0x6f,0x6c,0x75,0x6d,0x65,0x69,0x69))
241(bytes(0x04,0x08,0x6f,0x3a,0x0d,0x52,0x50,0x47,0x3a,0x3a,0x42,0x47,0x4d,0x08,0x3a,0x0a,0x40,0x6e,0x61,0x6d,0x65,0x49,0x22,0x09,0x65,0x72,0x6f,0x31,0x06,0x3a,0x06,0x45,0x54,0x3a,0x0c,0x40,0x76,0x6f,0x6c,0x75,0x6d,0x65,0x69,0x69,0x3a,0x0b,0x40,0x70,0x69,0x74,0x63,0x68,0x69,0x69))
ShowMessageFace("",0,0,2,5)
ShowMessage("Green mucus overflows from Minelli's treasure chest.")
ShowMessage("It sticks and entwines around my whole body.")
ShowMessageFace("",0,0,2,6)
ShowMessage("\\n<Luka>Unnngh...")
ShowMessageFace("",0,0,2,7)
ShowMessage("My body is swallowed up in the Minelli's treasure chest.")
ShowMessage("Inside, the mucus spreads around my whole body.")
ShowMessageFace("",0,0,2,8)
ShowMessage("\\n<Luka>W-wait...\nSqueezing too tight...")
ShowMessageFace("mimic_fc1",0,0,2,9)
ShowMessage("\\n<Minelli>Well, it's supposed to be tight... \nBecause I'm going to eat you.")
ShowMessageFace("",0,0,2,10)
ShowMessage("\\n<Luka>Eh? No way... I'm your ally...")
ShowMessageFace("mimic_fc1",0,0,2,11)
ShowMessage("\\n<Minelli>That doesn't matter to me as long as you're delicious. \nDon't worry I'll make it so it doesn't hurt when I eat you.")
ShowMessageFace("",0,0,2,12)
ShowMessage("\\n<Luka>S-Stop...!\nAaaah...!!")
ShowMessageFace("mimic_fc1",0,0,2,13)
ShowMessage("\\n<Minelli>Your struggling is in vain ~♪\nHoo-ra I'll swallow you whole.")
ShowMessageFace("",0,0,2,14)
ShowMessage("\\n<Luka>Hya! Aaaaaah!!")
245(bytes(0x04,0x08,0x6f,0x3a,0x0d,0x52,0x50,0x47,0x3a,0x3a,0x42,0x47,0x53,0x08,0x3a,0x0a,0x40,0x6e,0x61,0x6d,0x65,0x49,0x22,0x17,0x6d,0x6f,0x6e,0x5f,0x68,0x73,0x65,0x61,0x6e,0x31,0x38,0x5f,0x73,0x6c,0x69,0x6d,0x65,0x31,0x06,0x3a,0x06,0x45,0x54,0x3a,0x0c,0x40,0x76,0x6f,0x6c,0x75,0x6d,0x65,0x69,0x55,0x3a,0x0b,0x40,0x70,0x69,0x74,0x63,0x68,0x69,0x69))
PictureDisplay(5,"ev_mimic_st21",0,0,0,0,100,100,255,0)
ShowMessageFace("",0,0,2,15)
ShowMessage("My body gets swallowed by Minelli's treasure chest.")
ShowMessage("Inside my whole body gets entangled in the mucus that sticks all over me.")
ShowMessageFace("",0,0,2,16)
ShowMessage("\\n<Luka>Stop it......Stop!")
ShowMessageFace("mimic_fc1",0,0,2,17)
ShowMessage("\\n<Minelli>Even if you say that, your penis is big.\nWell then, I'll dissolve this first... ♪")
PictureDisplay(6,"ev_mimic_ct11",0,0,0,0,100,100,255,0)
ShowMessageFace("",0,0,2,18)
ShowMessage("\\n<Luka>Ah, Aaah...")
ShowMessageFace("",0,0,2,19)
ShowMessage("A lot of digestive mucus wraps around my dick gently.")
ShowMessage("It clings to me as if it had a will of its own.")
ShowMessageFace("",0,0,2,20)
ShowMessage("The sticky and wet sensation attacks me from all directions..")
ShowMessage("Without even thinking I'm lost in this mesmerizing feeling.")
ShowMessageFace("",0,0,2,21)
ShowMessage("\\n<Luka>Ngh... Aaah...")
RunCommonEvent(104)
PictureDisplay(5,"ev_mimic_st22",0,0,0,0,100,100,255,0)
PictureDisplay(6,"ev_mimic_ct12",0,0,0,0,100,100,255,0)
RunCommonEvent(105)
ShowMessageFace("",0,0,2,22)
ShowMessage("I come to a fast and disappointing climax.")
ShowMessage("The feeling of having my penis encased in her digestive mucus made me cum.")
ShowMessageFace("",0,0,2,23)
ShowMessage("\\n<Luka>Nnngh...")
ShowMessageFace("mimic_fc1",0,0,2,24)
ShowMessage("\\n<Minelli>Hahahah......!\nYou came already?!")
ShowMessageFace("mimic_fc1",0,0,2,25)
ShowMessage("\\n<Minelli>A lot of men ejaculate while having their penis melted.\nYou're the fastest one I've ever caught!")
ShowMessageFace("",0,0,2,26)
ShowMessage("\\n<Luka>U-Ugh...")
ShowMessageFace("mimic_fc1",0,0,2,27)
ShowMessage("\\n<Minelli>I need to punish this premature ejaculating penis...\nI usually take my time, but this time I'll melt it quickly.")
ShowMessageFace("",0,0,2,28)
ShowMessage("\\n<Luka>Th...That...")
ShowMessageFace("mimic_fc1",0,0,2,29)
ShowMessage("\\n<Minelli>Why am I doing this? \nBecause your penis comes too fast!")
ShowMessageFace("",0,0,2,30)
ShowMessage("\\n<Luka>A-Aaaah...!")
ShowMessageFace("",0,0,2,31)
ShowMessage("More and more of her digestive juice covers my penis.")
ShowMessage("It gradually melts it as the mucus wraps tightly around it.")
If(0,95,0)
 246(2)
 221()
 ShowMessageFace("",0,0,2,32)
 ShowMessage("＊＊＊The rest of the vore scene is being skipped.＊＊＊")
 JumpToLabel("zzz")
 0()
EndIf()
RunCommonEvent(104)
PictureDisplay(6,"ev_mimic_ct13",0,0,0,0,100,100,255,0)
RunCommonEvent(105)
ShowMessageFace("",0,0,2,33)
ShowMessage("\\n<Luka>Hii...Ah, aaaaaah!!")
ShowMessageFace("",0,0,2,34)
ShowMessage("My penis melts to mush as if it was candle wax burning away!")
ShowMessageFace("",0,0,2,35)
ShowMessage("Slowly being digested, while my dick is massaged by the juices, is too overwhelming to keep my sanity through.")
ShowMessageFace("",0,0,2,36)
ShowMessage("\\n<Luka>Ah, Aaah...Hyaaaa!")
RunCommonEvent(104)
PictureDisplay(6,"ev_mimic_ct14",0,0,0,0,100,100,255,0)
RunCommonEvent(105)
ShowMessageFace("mimic_fc1",0,0,2,37)
ShowMessage("\\n<Minelli>Hahaha... Did I break you? \nHaving your penis melted is the finest of pleasures.")
ShowMessageFace("mimic_fc1",0,0,2,38)
ShowMessage("\\n<Minelli>Coming so much while your body is melting. ♪")
ShowMessageFace("",0,0,2,39)
ShowMessage("With my body slowly dissolving, the insane pleasure overpowers all of my other senses as I start to lose feeling in my body.")
ShowMessageFace("",0,0,2,40)
ShowMessage("\\n<Luka>Hyaaa!　Ha...Ah, aaaah...!!")
ShowMessageFace("",0,0,2,41)
ShowMessage("With my body burning hot from ecstasy, I can only feel the pleasure wash over me.")
ShowMessageFace("mimic_fc1",0,0,2,42)
ShowMessage("\\n<Minelli>Horahorahora... Your body is being digested by me. You know that right?\nYour whole body dissolving... It feels great, doesn't it? ♪")
ShowMessageFace("",0,0,2,43)
ShowMessage("\\n<Luka>Aaaah...!!")
ShowMessageFace("",0,0,2,44)
ShowMessage("My consciousness starts to fade in the overwhelming pleasure.")
ShowMessageFace("",0,0,2,45)
ShowMessage("Overpowered by this fake pleasure, the Mimic is slowly eating me...")
ShowMessageFace("mimic_fc1",0,0,2,46)
ShowMessage("\\n<Minelli>Ahaha... I'm eating you now. ♪\nYou tried so hard to stay alive up until now, too. Too bad, huh? ♪")
ShowMessageFace("mimic_fc1",0,0,2,47)
ShowMessage("\\n<Minelli>Well? How does it feel?\nBeing nothing but my food. ♪")
ShowMessageFace("",0,0,2,48)
ShowMessage("\\n<Luka>Ah... Aaah...")
ShowMessageFace("",0,0,2,49)
ShowMessage("Feeling so good while being eaten by Minelli...")
ShowMessage("Even if I feel such horror at the idea of being eaten...")
ShowMessageFace("",0,0,2,50)
ShowMessage("My body is rejoicing in the pleasure.")
ShowMessageFace("",0,0,2,51)
ShowMessage("Being eaten alive, I'm drowning in pleasure.")
ShowMessageFace("mimic_fc1",0,0,2,52)
ShowMessage("\\n<Minelli>Feeling so good while being eaten...\nYou were a pathetic man. ♪")
ShowMessageFace("",0,0,2,53)
ShowMessage("\\n<Luka>Ah...ah...")
ShowMessageFace("",0,0,2,54)
ShowMessage("Slowly my whole body becomes mushy.")
ShowMessage("The Mimic starts absorbing me little by little.")
ShowMessageFace("",0,0,2,55)
ShowMessage("My body and mind become one with the Mimic and it feels heavenly.")
ShowMessageFace("",0,0,2,56)
ShowMessage("My consciousness fades away as I melt...")
ShowMessageFace("",0,0,2,57)
ShowMessage("But it felt so good...")
ShowMessageFace("",0,0,2,58)
ShowMessage("......")
221()
PictureClear(5)
PictureClear(6)
246(2)
ShowMessageFace("mimic_fc1",0,0,2,59)
ShowMessage("\\n<Minelli>Hahaha. Thanks for the meal. ♪")
ShowMessageFace("",0,0,2,60)
ShowMessage("......")
DefineLabel("zzz")
242(2)
Wait(120)
ChangeVariable(1002,1002,0,0,0)
216(1)
355("forced_transfer(154,18,52)")
355("release_temp_actors")
355("$game_map.screen.clear")
0()
