// EVENT 0069
Name "Skill: Play 291-300"

ChangeVariable(11,11,0,2,1,5)
If(1,100,0,291,0)
 If(1,11,0,1,0)
  ShowMessageFace("madamumbrella_fc1",0,0,2,1)
  ShowMessage("【シャロン】")
  ShowMessage("お日様もいいものね……")
  ShowMessageFace("",0,0,2,2)
  ShowMessage("シャロンは地面に寝そべって日光浴している……")
  EndEventProcessing()
  0()
 EndIf()
 If(1,11,0,2,0)
  ShowMessageFace("madamumbrella_fc1",0,0,2,3)
  ShowMessage("【シャロン】")
  ShowMessage("この傘は特別製よ……")
  ShowMessageFace("",0,0,2,4)
  ShowMessage("シャロンは傘をクルクル回している……")
  EndEventProcessing()
  0()
 EndIf()
 If(1,11,0,3,0)
  ShowMessageFace("madamumbrella_fc1",2,0,2,5)
  ShowMessage("【シャロン】")
  ShowMessage("こんな野蛮な戦い、うんざりだわ……")
  ShowMessageFace("",0,0,2,6)
  ShowMessage("シャロンはどこかに隠れてしまった！")
  ShowMessage("誰も探そうとしない……")
  EndEventProcessing()
  0()
 EndIf()
 If(1,11,0,4,0)
  ShowMessageFace("madamumbrella_fc1",0,0,2,7)
  ShowMessage("【シャロン】")
  ShowMessage("これ、食べなさい。甘いわよ……")
  ShowMessageFace("",0,0,2,8)
  ShowMessage("シャロンからの差し入れだ！")
  250(bytes(0x04,0x08,0x6f,0x3a,0x0c,0x52,0x50,0x47,0x3a,0x3a,0x53,0x45,0x08,0x3a,0x0a,0x40,0x6e,0x61,0x6d,0x65,0x49,0x22,0x0a,0x49,0x74,0x65,0x6d,0x31,0x06,0x3a,0x06,0x45,0x54,0x3a,0x0b,0x40,0x70,0x69,0x74,0x63,0x68,0x69,0x69,0x3a,0x0c,0x40,0x76,0x6f,0x6c,0x75,0x6d,0x65,0x69,0x55))
  ChangeInventory_Item(421,0,0,1)
  ShowMessageFace("",0,0,2,9)
  ShowMessage("「ちぃぱっぱ」を手に入れた！")
  EndEventProcessing()
  0()
 EndIf()
 If(1,11,0,5,0)
  ShowMessageFace("madamumbrella_fc1",0,0,2,10)
  ShowMessage("【シャロン】")
  ShowMessage("邪魔よ……")
  355("interrupt_skill(2776)")
  EndEventProcessing()
  0()
 EndIf()
 0()
EndIf()
If(1,100,0,292,0)
 If(1,11,0,1,0)
  ShowMessageFace("aradia_fc1",1,0,2,11)
  ShowMessage("【アラディア】")
  ShowMessage("うふふ……")
  355("interrupt_skill(3296)")
  EndEventProcessing()
  0()
 EndIf()
 If(1,11,0,2,0)
  ShowMessageFace("aradia_fc1",0,0,2,12)
  ShowMessage("【アラディア】")
  ShowMessage("私のおっぱい、もっと磨かないと……")
  ShowMessageFace("",0,0,2,13)
  ShowMessage("アラディアはこっそり修行している……")
  EndEventProcessing()
  0()
 EndIf()
 If(1,11,0,3,0)
  ShowMessageFace("aradia_fc1",1,0,2,14)
  ShowMessage("【アラディア】")
  ShowMessage("……………………")
  313(0,292,0,24)
  ShowMessageFace("",0,0,2,15)
  ShowMessage("アラディアはいやらしい事を考えている……")
  ShowMessage("アラディアは敏感になってしまった！")
  EndEventProcessing()
  0()
 EndIf()
 If(1,11,0,4,0)
  ShowMessageFace("aradia_fc1",0,0,2,16)
  ShowMessage("【アラディア】")
  ShowMessage("これをあげますね……ふふふっ。")
  ShowMessageFace("",0,0,2,17)
  ShowMessage("アラディアからの差し入れだ！")
  250(bytes(0x04,0x08,0x6f,0x3a,0x0c,0x52,0x50,0x47,0x3a,0x3a,0x53,0x45,0x08,0x3a,0x0a,0x40,0x6e,0x61,0x6d,0x65,0x49,0x22,0x0a,0x49,0x74,0x65,0x6d,0x31,0x06,0x3a,0x06,0x45,0x54,0x3a,0x0b,0x40,0x70,0x69,0x74,0x63,0x68,0x69,0x69,0x3a,0x0c,0x40,0x76,0x6f,0x6c,0x75,0x6d,0x65,0x69,0x55))
  ChangeInventory_Item(342,0,0,1)
  ShowMessageFace("",0,0,2,18)
  ShowMessage("「ミルク」を手に入れた！")
  EndEventProcessing()
  0()
 EndIf()
 If(1,11,0,5,0)
  ShowMessageFace("aradia_fc1",0,0,2,19)
  ShowMessage("【アラディア】")
  ShowMessage("おっぱい魔法よ……")
  355("interrupt_skill(1542)")
  EndEventProcessing()
  0()
 EndIf()
 0()
EndIf()
If(1,100,0,293,0)
 If(1,11,0,1,0)
  ShowMessageFace("candy_fc1",1,0,2,20)
  ShowMessage("【キャンディ】")
  ShowMessage("むしゃ……むしゃ……")
  ShowMessageFace("",0,0,2,21)
  ShowMessage("キャンディは食料を盗み食いしている……")
  EndEventProcessing()
  0()
 EndIf()
 If(1,11,0,2,0)
  ShowMessageFace("candy_fc1",1,0,2,22)
  ShowMessage("【キャンディ】")
  ShowMessage("むしゃ……むしゃ……")
  ShowMessageFace("",0,0,2,23)
  ShowMessage("キャンディは自分の髪を食べている……")
  EndEventProcessing()
  0()
 EndIf()
 If(1,11,0,3,0)
  ShowMessageFace("candy_fc1",3,0,2,24)
  ShowMessage("【キャンディ】")
  ShowMessage("すやすや。")
  313(0,293,0,11)
  ShowMessageFace("",0,0,2,25)
  ShowMessage("キャンディは居眠りしている……")
  EndEventProcessing()
  0()
 EndIf()
 If(1,11,0,4,0)
  ShowMessageFace("candy_fc1",1,0,2,26)
  ShowMessage("【キャンディ】")
  ShowMessage("これ、あげます……")
  ShowMessage("お友達のしるしですよ？")
  ShowMessageFace("",0,0,2,27)
  ShowMessage("キャンディからの差し入れだ！")
  250(bytes(0x04,0x08,0x6f,0x3a,0x0c,0x52,0x50,0x47,0x3a,0x3a,0x53,0x45,0x08,0x3a,0x0a,0x40,0x6e,0x61,0x6d,0x65,0x49,0x22,0x0a,0x49,0x74,0x65,0x6d,0x31,0x06,0x3a,0x06,0x45,0x54,0x3a,0x0b,0x40,0x70,0x69,0x74,0x63,0x68,0x69,0x69,0x3a,0x0c,0x40,0x76,0x6f,0x6c,0x75,0x6d,0x65,0x69,0x55))
  ChangeInventory_Item(417,0,0,1)
  ShowMessageFace("",0,0,2,28)
  ShowMessage("「ケーキ」を手に入れた！")
  EndEventProcessing()
  0()
 EndIf()
 If(1,11,0,5,0)
  ShowMessageFace("candy_fc1",1,0,2,29)
  ShowMessage("【キャンディ】")
  ShowMessage("ずずーん！")
  355("interrupt_skill(2993)")
  EndEventProcessing()
  0()
 EndIf()
 0()
EndIf()
If(1,100,0,294,0)
 If(1,11,0,1,0)
  ShowMessageFace("emily_fc1",2,0,2,30)
  ShowMessage("【エミリ】")
  ShowMessage("あたし、アイドルになるから♪")
  ShowMessageFace("",0,0,2,31)
  ShowMessage("エミリは大胆に宣言した！")
  ShowMessage("しかし誰も聞いていない……")
  EndEventProcessing()
  0()
 EndIf()
 If(1,11,0,2,0)
  ShowMessageFace("emily_fc1",2,0,2,32)
  ShowMessage("【エミリ】")
  ShowMessage("キラッ☆")
  355("interrupt_skill(2081)")
  EndEventProcessing()
  0()
 EndIf()
 If(1,11,0,3,0)
  ShowMessageFace("emily_fc1",2,0,2,33)
  ShowMessage("【エミリ】")
  ShowMessage("あははっ……♪")
  ShowMessageFace("",0,0,2,34)
  ShowMessage("エミリは陽気に歌って踊っている……")
  EndEventProcessing()
  0()
 EndIf()
 If(1,11,0,4,0)
  ShowMessageFace("emily_fc1",1,0,2,35)
  ShowMessage("【エミリ】")
  ShowMessage("はい、あげる。")
  ShowMessageFace("",0,0,2,36)
  ShowMessage("エミリからの差し入れだ！")
  250(bytes(0x04,0x08,0x6f,0x3a,0x0c,0x52,0x50,0x47,0x3a,0x3a,0x53,0x45,0x08,0x3a,0x0a,0x40,0x6e,0x61,0x6d,0x65,0x49,0x22,0x0a,0x49,0x74,0x65,0x6d,0x31,0x06,0x3a,0x06,0x45,0x54,0x3a,0x0b,0x40,0x70,0x69,0x74,0x63,0x68,0x69,0x69,0x3a,0x0c,0x40,0x76,0x6f,0x6c,0x75,0x6d,0x65,0x69,0x55))
  ChangeInventory_Item(337,0,0,1)
  ShowMessageFace("",0,0,2,37)
  ShowMessage("「イチゴジャム」を手に入れた！")
  EndEventProcessing()
  0()
 EndIf()
 If(1,11,0,5,0)
  ShowMessageFace("emily_fc1",1,0,2,38)
  ShowMessage("【エミリ】")
  ShowMessage("イっちゃえー♪")
  355("interrupt_skill(2789)")
  EndEventProcessing()
  0()
 EndIf()
 0()
EndIf()
If(1,100,0,295,0)
 If(1,11,0,1,0)
  ShowMessageFace("cassandra_fc1",5,0,2,39)
  ShowMessage("【カサンドラ】")
  ShowMessage("うふふふっ……")
  ShowMessageFace("",0,0,2,40)
  ShowMessage("カサンドラはくすくす笑っている……")
  EndEventProcessing()
  0()
 EndIf()
 If(1,11,0,2,0)
  ShowMessageFace("cassandra_fc1",5,0,2,41)
  ShowMessage("【カサンドラ】")
  ShowMessage("うふふふっ……")
  ShowMessageFace("",0,0,2,42)
  ShowMessage("カサンドラは陽気に歌って踊っている……")
  EndEventProcessing()
  0()
 EndIf()
 If(1,11,0,3,0)
  ShowMessageFace("cassandra_fc1",5,0,2,43)
  ShowMessage("【カサンドラ】")
  ShowMessage("私が次の魔王となりましょう。")
  ShowMessageFace("",0,0,2,44)
  ShowMessage("カサンドラは大胆に宣言した！")
  ShowMessage("しかし誰も聞いていない……")
  EndEventProcessing()
  0()
 EndIf()
 If(1,11,0,4,0)
  ShowMessageFace("cassandra_fc1",5,0,2,45)
  ShowMessage("【カサンドラ】")
  ShowMessage("これをどうぞ……")
  ShowMessageFace("",0,0,2,46)
  ShowMessage("カサンドラからの差し入れだ！")
  250(bytes(0x04,0x08,0x6f,0x3a,0x0c,0x52,0x50,0x47,0x3a,0x3a,0x53,0x45,0x08,0x3a,0x0a,0x40,0x6e,0x61,0x6d,0x65,0x49,0x22,0x0a,0x49,0x74,0x65,0x6d,0x31,0x06,0x3a,0x06,0x45,0x54,0x3a,0x0b,0x40,0x70,0x69,0x74,0x63,0x68,0x69,0x69,0x3a,0x0c,0x40,0x76,0x6f,0x6c,0x75,0x6d,0x65,0x69,0x55))
  ChangeInventory_Item(398,0,0,1)
  ShowMessageFace("",0,0,2,47)
  ShowMessage("「麻婆豆腐」を手に入れた！")
  EndEventProcessing()
  0()
 EndIf()
 If(1,11,0,5,0)
  ShowMessageFace("cassandra_fc1",5,0,2,48)
  ShowMessage("【カサンドラ】")
  ShowMessage("みんな溶かしましょうか……")
  355("interrupt_skill(2647)")
  EndEventProcessing()
  0()
 EndIf()
 0()
EndIf()
If(1,100,0,297,0)
 If(1,11,0,1,0)
  ShowMessageFace("basilisk_fc1",0,0,2,49)
  ShowMessage("【バージリン】")
  ShowMessage("まったく、トカゲなんだか鳥なんだか……")
  ShowMessageFace("",0,0,2,50)
  ShowMessage("バージリンは一人で愚痴を言っている……")
  EndEventProcessing()
  0()
 EndIf()
 If(1,11,0,2,0)
  ShowMessageFace("basilisk_fc1",0,0,2,51)
  ShowMessage("【バージリン】")
  ShowMessage("シャー！！")
  355("interrupt_skill(3312)")
  EndEventProcessing()
  0()
 EndIf()
 If(1,11,0,3,0)
  ShowMessageFace("basilisk_fc1",0,0,2,52)
  ShowMessage("【バージリン】")
  ShowMessage("腹が減った……もぐもぐ。")
  ShowMessageFace("",0,0,2,53)
  ShowMessage("バージリンは食料を盗み食いしている……")
  EndEventProcessing()
  0()
 EndIf()
 If(1,11,0,4,0)
  ShowMessageFace("basilisk_fc1",0,0,2,54)
  ShowMessage("【バージリン】")
  ShowMessage("これをやろう……あたしのじゃないからな。")
  ShowMessageFace("",0,0,2,55)
  ShowMessage("……からの差し入れだ！")
  250(bytes(0x04,0x08,0x6f,0x3a,0x0c,0x52,0x50,0x47,0x3a,0x3a,0x53,0x45,0x08,0x3a,0x0a,0x40,0x6e,0x61,0x6d,0x65,0x49,0x22,0x0a,0x49,0x74,0x65,0x6d,0x31,0x06,0x3a,0x06,0x45,0x54,0x3a,0x0b,0x40,0x70,0x69,0x74,0x63,0x68,0x69,0x69,0x3a,0x0c,0x40,0x76,0x6f,0x6c,0x75,0x6d,0x65,0x69,0x55))
  ChangeInventory_Item(330,0,0,1)
  ShowMessageFace("",0,0,2,56)
  ShowMessage("「鳥足」を手に入れた！")
  EndEventProcessing()
  0()
 EndIf()
 If(1,11,0,5,0)
  ShowMessageFace("basilisk_fc1",0,0,2,57)
  ShowMessage("【バージリン】")
  ShowMessage("ふん、石になれよ……")
  355("interrupt_skill(2556)")
  EndEventProcessing()
  0()
 EndIf()
 0()
EndIf()
If(1,100,0,298,0)
 If(1,11,0,1,0)
  ShowMessageFace("dragon_fc1",0,0,2,58)
  ShowMessage("【グランテ】")
  ShowMessage("おおおお……！！")
  355("interrupt_skill(2698)")
  EndEventProcessing()
  0()
 EndIf()
 If(1,11,0,2,0)
  ShowMessageFace("dragon_fc1",0,0,2,59)
  ShowMessage("【グランテ】")
  ShowMessage("……………………")
  ShowMessageFace("",0,0,2,60)
  ShowMessage("グランテは流し目を送った……")
  ShowMessage("しかし、睨んでいるようにしか見えない！")
  EndEventProcessing()
  0()
 EndIf()
 If(1,11,0,3,0)
  ShowMessageFace("dragon_fc1",0,0,2,61)
  ShowMessage("【グランテ】")
  ShowMessage("少し眠る……")
  313(0,298,0,11)
  ShowMessageFace("",0,0,2,62)
  ShowMessage("グランテは居眠りしている……")
  EndEventProcessing()
  0()
 EndIf()
 If(1,11,0,4,0)
  ShowMessageFace("dragon_fc1",0,0,2,63)
  ShowMessage("【グランテ】")
  ShowMessage("いい天気だな……")
  ShowMessageFace("",0,0,2,64)
  ShowMessage("グランテは地面に寝そべって日光浴している……")
  EndEventProcessing()
  0()
 EndIf()
 If(1,11,0,5,0)
  ShowMessageFace("dragon_fc1",0,0,2,65)
  ShowMessage("【グランテ】")
  ShowMessage("はぁぁ……！")
  355("interrupt_skill(3070)")
  EndEventProcessing()
  0()
 EndIf()
 0()
EndIf()
If(1,100,0,299,0)
 If(1,11,0,1,0)
  ShowMessageFace("gelatinous_fc1",0,0,2,66)
  ShowMessage("【マージュ】")
  ShowMessage("ぷるぷるぷるっ……♪")
  ShowMessageFace("",0,0,2,67)
  ShowMessage("マージュはぷるぷるしている！")
  EndEventProcessing()
  0()
 EndIf()
 If(1,11,0,2,0)
  ShowMessageFace("gelatinous_fc1",0,0,2,68)
  ShowMessage("【マージュ】")
  ShowMessage("みんな、がんばって～！")
  355("interrupt_skill(3300)")
  EndEventProcessing()
  0()
 EndIf()
 If(1,11,0,3,0)
  ShowMessageFace("gelatinous_fc1",1,0,2,69)
  ShowMessage("【マージュ】")
  ShowMessage("あはははっ……♪")
  ShowMessageFace("",0,0,2,70)
  ShowMessage("マージュは楽しそうに笑っている！")
  EndEventProcessing()
  0()
 EndIf()
 If(1,11,0,4,0)
  ShowMessageFace("gelatinous_fc1",0,0,2,71)
  ShowMessage("【マージュ】")
  ShowMessage("あたしのキューブ、結構おいしいですよ♪")
  ShowMessageFace("",0,0,2,72)
  ShowMessage("マージュからの差し入れだ！")
  250(bytes(0x04,0x08,0x6f,0x3a,0x0c,0x52,0x50,0x47,0x3a,0x3a,0x53,0x45,0x08,0x3a,0x0a,0x40,0x6e,0x61,0x6d,0x65,0x49,0x22,0x0a,0x49,0x74,0x65,0x6d,0x31,0x06,0x3a,0x06,0x45,0x54,0x3a,0x0b,0x40,0x70,0x69,0x74,0x63,0x68,0x69,0x69,0x3a,0x0c,0x40,0x76,0x6f,0x6c,0x75,0x6d,0x65,0x69,0x55))
  ChangeInventory_Item(422,0,0,1)
  ShowMessageFace("",0,0,2,73)
  ShowMessage("「ゼリー」を手に入れた！")
  EndEventProcessing()
  0()
 EndIf()
 If(1,11,0,5,0)
  ShowMessageFace("gelatinous_fc1",0,0,2,74)
  ShowMessage("【マージュ】")
  ShowMessage("キューブ、いっちゃえ～！")
  355("interrupt_skill(2651)")
  EndEventProcessing()
  0()
 EndIf()
 0()
EndIf()
If(1,100,0,300,0)
 If(1,11,0,1,0)
  ShowMessageFace("youki_fc1",0,0,2,75)
  ShowMessage("【くれは】")
  ShowMessage("どりゃっ！　どりゃっ！")
  ShowMessageFace("",0,0,2,76)
  ShowMessage("くれははは武器を素振りしている……")
  EndEventProcessing()
  0()
 EndIf()
 If(1,11,0,2,0)
  ShowMessageFace("youki_fc1",0,0,2,77)
  ShowMessage("【くれは】")
  ShowMessage("ふんっ！！")
  355("interrupt_skill(3294)")
  EndEventProcessing()
  0()
 EndIf()
 If(1,11,0,3,0)
  ShowMessageFace("youki_fc1",0,0,2,78)
  ShowMessage("【くれは】")
  ShowMessage("おおおおおっ！！")
  355("interrupt_skill(3292)")
  EndEventProcessing()
  0()
 EndIf()
 If(1,11,0,4,0)
  ShowMessageFace("youki_fc1",0,0,2,79)
  ShowMessage("【くれは】")
  ShowMessage("ほら、食えよ！")
  ShowMessageFace("",0,0,2,80)
  ShowMessage("くれはからの差し入れだ！")
  250(bytes(0x04,0x08,0x6f,0x3a,0x0c,0x52,0x50,0x47,0x3a,0x3a,0x53,0x45,0x08,0x3a,0x0a,0x40,0x6e,0x61,0x6d,0x65,0x49,0x22,0x0a,0x49,0x74,0x65,0x6d,0x31,0x06,0x3a,0x06,0x45,0x54,0x3a,0x0b,0x40,0x70,0x69,0x74,0x63,0x68,0x69,0x69,0x3a,0x0c,0x40,0x76,0x6f,0x6c,0x75,0x6d,0x65,0x69,0x55))
  ChangeInventory_Item(371,0,0,1)
  ShowMessageFace("",0,0,2,81)
  ShowMessage("「牛丼」を手に入れた！")
  EndEventProcessing()
  0()
 EndIf()
 If(1,11,0,5,0)
  ShowMessageFace("youki_fc1",0,0,2,82)
  ShowMessage("【くれは】")
  ShowMessage("どりゃっ！　どりゃっ！")
  355("interrupt_skill(3291)")
  EndEventProcessing()
  0()
 EndIf()
 0()
EndIf()
0()
