// EVENT 0022
Name "Skill: Material Delivery"

ChangeVariable(11,11,0,2,1,46)
250(bytes(0x04,0x08,0x6f,0x3a,0x0c,0x52,0x50,0x47,0x3a,0x3a,0x53,0x45,0x08,0x3a,0x0a,0x40,0x6e,0x61,0x6d,0x65,0x49,0x22,0x0a,0x49,0x74,0x65,0x6d,0x31,0x06,0x3a,0x06,0x45,0x54,0x3a,0x0b,0x40,0x70,0x69,0x74,0x63,0x68,0x69,0x69,0x3a,0x0c,0x40,0x76,0x6f,0x6c,0x75,0x6d,0x65,0x69,0x55))
If(1,11,0,20,2)
 ChangeVariable(12,12,0,2,1,11)
 If(1,12,0,1,0)
  ChangeInventory_Item(51,0,0,2)
  ChangeInventory_Item(52,0,0,1)
  ShowMessageFace("",0,0,2,1)
  ShowMessage("2 Fire Stones and 1 Red Fire Stone were delivered!")
  EndEventProcessing()
  0()
 EndIf()
 If(1,12,0,2,0)
  ChangeInventory_Item(55,0,0,2)
  ChangeInventory_Item(56,0,0,1)
  ShowMessageFace("",0,0,2,2)
  ShowMessage("2 Ice Stones and 1 Blue Ice Stone were delivered!")
  EndEventProcessing()
  0()
 EndIf()
 If(1,12,0,3,0)
  ChangeInventory_Item(59,0,0,2)
  ChangeInventory_Item(61,0,0,1)
  ShowMessageFace("",0,0,2,3)
  ShowMessage("2 Thunder Stones and 1 Yellow Thunder Stone were delivered!")
  EndEventProcessing()
  0()
 EndIf()
 If(1,12,0,4,0)
  ChangeInventory_Item(63,0,0,2)
  ChangeInventory_Item(64,0,0,1)
  ShowMessageFace("",0,0,2,4)
  ShowMessage("2 Wind Stones and 1 Green Wind Stone were delivered!")
  EndEventProcessing()
  0()
 EndIf()
 If(1,12,0,5,0)
  ChangeInventory_Item(67,0,0,2)
  ChangeInventory_Item(69,0,0,1)
  ShowMessageFace("",0,0,2,5)
  ShowMessage("2 Earth Stones and 1 Orange Earth Stone were delivered!")
  EndEventProcessing()
  0()
 EndIf()
 If(1,12,0,6,0)
  ChangeInventory_Item(71,0,0,2)
  ChangeInventory_Item(72,0,0,1)
  ShowMessageFace("",0,0,2,6)
  ShowMessage("2 Water Stones and 1 Blue Water Stone were delivered!")
  EndEventProcessing()
  0()
 EndIf()
 If(1,12,0,7,0)
  ChangeInventory_Item(75,0,0,2)
  ChangeInventory_Item(76,0,0,1)
  ShowMessageFace("",0,0,2,7)
  ShowMessage("2 Holy Stones and 1 White Holy Stone were delivered!")
  EndEventProcessing()
  0()
 EndIf()
 If(1,12,0,8,0)
  ChangeInventory_Item(79,0,0,2)
  ChangeInventory_Item(80,0,0,1)
  ShowMessageFace("",0,0,2,8)
  ShowMessage("2 Dark Stones and 1 Black Dark Stone were delivered!")
  EndEventProcessing()
  0()
 EndIf()
 If(1,12,0,9,0)
  ChangeInventory_Item(53,0,0,1)
  ChangeInventory_Item(57,0,0,1)
  ChangeInventory_Item(61,0,0,1)
  ShowMessageFace("",0,0,2,9)
  ShowMessage("1 Blazing Red Fire Stone, 1 Frigid Blue Ice Stone, and 1 Sparking Yellow Thunder Stone were delivered!")
  EndEventProcessing()
  0()
 EndIf()
 If(1,12,0,10,0)
  ChangeInventory_Item(65,0,0,1)
  ChangeInventory_Item(69,0,0,1)
  ChangeInventory_Item(73,0,0,1)
  ShowMessageFace("",0,0,2,10)
  ShowMessage("1 Blustery Green Wind Stone, 1 Rumbling Orange Earth Stone, and 1 Rushing Blue Water Stone were delivered!")
  EndEventProcessing()
  0()
 EndIf()
 If(1,12,0,11,0)
  ChangeInventory_Item(77,0,0,1)
  ChangeInventory_Item(81,0,0,1)
  ShowMessageFace("",0,0,2,11)
  ShowMessage("1 Bright White Holy Stone and 1 Pitch Black Dark Stone were delivered!")
  EndEventProcessing()
  0()
 EndIf()
 0()
EndIf()
If(1,11,0,40,2)
 ChangeVariable(12,12,0,2,1,16)
 If(1,12,0,1,0)
  ChangeInventory_Item(161,0,0,2)
  ChangeInventory_Item(165,0,0,1)
  ShowMessageFace("",0,0,2,12)
  ShowMessage("2 Slimy Mucus and 1 Sticky Slime were delivered!")
  EndEventProcessing()
  0()
 EndIf()
 If(1,12,0,2,0)
  ChangeInventory_Item(164,0,0,2)
  ChangeInventory_Item(182,0,0,1)
  ShowMessageFace("",0,0,2,13)
  ShowMessage("2 Beast Claws and 1 Sharp Beast Claw were delivered!")
  EndEventProcessing()
  0()
 EndIf()
 If(1,12,0,3,0)
  ChangeInventory_Item(166,0,0,2)
  ChangeInventory_Item(172,0,0,1)
  ShowMessageFace("",0,0,2,14)
  ShowMessage("2 Chaos Stones and 1 Chaos Fragment were delivered!")
  EndEventProcessing()
  0()
 EndIf()
 If(1,12,0,4,0)
  ChangeInventory_Item(171,0,0,2)
  ChangeInventory_Item(226,0,0,1)
  ShowMessageFace("",0,0,2,15)
  ShowMessage("2 Beautiful Corals and 1 Ocean Coral were delivered!")
  EndEventProcessing()
  0()
 EndIf()
 If(1,12,0,5,0)
  ChangeInventory_Item(173,0,0,2)
  ChangeInventory_Item(206,0,0,1)
  ShowMessageFace("",0,0,2,16)
  ShowMessage("2 Strong Hooves and 1 Cat Whiskers were delivered!")
  EndEventProcessing()
  0()
 EndIf()
 If(1,12,0,6,0)
  ChangeInventory_Item(176,0,0,2)
  ChangeInventory_Item(228,0,0,1)
  ShowMessageFace("",0,0,2,17)
  ShowMessage("2 Sturdy Shells and 1 Large Horn were delivered!")
  EndEventProcessing()
  0()
 EndIf()
 If(1,12,0,7,0)
  ChangeInventory_Item(183,0,0,2)
  ChangeInventory_Item(200,0,0,1)
  ShowMessageFace("",0,0,2,18)
  ShowMessage("2 Delicate Gears and 1 Logical Gear were delivered!")
  EndEventProcessing()
  0()
 EndIf()
 If(1,12,0,8,0)
  ChangeInventory_Item(184,0,0,2)
  ChangeInventory_Item(199,0,0,1)
  ShowMessageFace("",0,0,2,19)
  ShowMessage("2 Cell Cultures and 1 Dogmatic Cell Culture were delivered!")
  EndEventProcessing()
  0()
 EndIf()
 If(1,12,0,9,0)
  ChangeInventory_Item(185,0,0,2)
  ChangeInventory_Item(210,0,0,1)
  ShowMessageFace("",0,0,2,20)
  ShowMessage("2 Ghost Hair and 1 Oni Hair were delivered!")
  EndEventProcessing()
  0()
 EndIf()
 If(1,12,0,10,0)
  ChangeInventory_Item(186,0,0,2)
  ChangeInventory_Item(221,0,0,1)
  ShowMessageFace("",0,0,2,21)
  ShowMessage("2 Zombie Powder and 1 Necrosis Powder were delivered!")
  EndEventProcessing()
  0()
 EndIf()
 If(1,12,0,11,0)
  ChangeInventory_Item(189,0,0,2)
  ChangeInventory_Item(213,0,0,1)
  ShowMessageFace("",0,0,2,22)
  ShowMessage("2 Bull Horns and 1 Bull Hoof were delivered!")
  EndEventProcessing()
  0()
 EndIf()
 If(1,12,0,12,0)
  ChangeInventory_Item(195,0,0,2)
  ChangeInventory_Item(236,0,0,1)
  ShowMessageFace("",0,0,2,23)
  ShowMessage("2 Magical Crystals and 1 Spirit Crystal were delivered!")
  EndEventProcessing()
  0()
 EndIf()
 If(1,12,0,13,0)
  ChangeInventory_Item(196,0,0,2)
  ChangeInventory_Item(215,0,0,1)
  ShowMessageFace("",0,0,2,24)
  ShowMessage("2 Small Oni Horns and 1 Oni Horn were delivered!")
  EndEventProcessing()
  0()
 EndIf()
 If(1,12,0,14,0)
  ChangeInventory_Item(197,0,0,2)
  ChangeInventory_Item(223,0,0,1)
  ShowMessageFace("",0,0,2,25)
  ShowMessage("2 Dragon Scales and 1 Dragon Fang were delivered!")
  EndEventProcessing()
  0()
 EndIf()
 If(1,12,0,15,0)
  ChangeInventory_Item(204,0,0,2)
  ChangeInventory_Item(234,0,0,1)
  ShowMessageFace("",0,0,2,26)
  ShowMessage("2 Mermaid Scales and 1 Mysterious Scale were delivered!")
  EndEventProcessing()
  0()
 EndIf()
 If(1,12,0,16,0)
  ChangeInventory_Item(175,0,0,2)
  ChangeInventory_Item(212,0,0,1)
  ShowMessageFace("",0,0,2,27)
  ShowMessage("2 Spider Silk and 1 Kappa Plate were delivered!")
  EndEventProcessing()
  0()
 EndIf()
 0()
EndIf()
If(1,11,0,45,2)
 ChangeVariable(12,12,0,2,1,22)
 If(1,12,0,1,0)
  ChangeInventory_Item(219,0,0,1)
  ChangeInventory_Item(233,0,0,1)
  ShowMessageFace("",0,0,2,28)
  ShowMessage("1 Magical Gear and 1 Puppet Gear were delivered!")
  EndEventProcessing()
  0()
 EndIf()
 If(1,12,0,2,0)
  ChangeInventory_Item(225,0,0,1)
  ChangeInventory_Item(240,0,0,1)
  ShowMessageFace("",0,0,2,29)
  ShowMessage("1 Iris Cell Culture and 1 Idea Cell Culture were delivered!")
  EndEventProcessing()
  0()
 EndIf()
 If(1,12,0,3,0)
  ChangeInventory_Item(211,0,0,1)
  ChangeInventory_Item(245,0,0,1)
  ShowMessageFace("",0,0,2,30)
  ShowMessage("1 Devilish Snake Tail and 1 Supreme Snake Tail were delivered!")
  EndEventProcessing()
  0()
 EndIf()
 If(1,12,0,4,0)
  ChangeInventory_Item(238,0,0,1)
  ChangeInventory_Item(244,0,0,1)
  ShowMessageFace("",0,0,2,31)
  ShowMessage("1 Feral Beast Claw and 1 Supreme Beast Claw were delivered!")
  EndEventProcessing()
  0()
 EndIf()
 If(1,12,0,5,0)
  ChangeInventory_Item(178,0,0,1)
  ChangeInventory_Item(193,0,0,1)
  ChangeInventory_Item(220,0,0,1)
  ShowMessageFace("",0,0,2,32)
  ShowMessage("1 Lamia Tail, 1 Charming Snake Tail, and 1 Medusa Snake were delivered!")
  EndEventProcessing()
  0()
 EndIf()
 If(1,12,0,6,0)
  ChangeInventory_Item(163,0,0,1)
  ChangeInventory_Item(191,0,0,1)
  ChangeInventory_Item(216,0,0,1)
  ShowMessageFace("",0,0,2,33)
  ShowMessage("1 Magic Leaf, 1 Cactus Thorn, and 1 Strange Leaf were delivered!")
  EndEventProcessing()
  0()
 EndIf()
 If(1,12,0,7,0)
  ChangeInventory_Item(207,0,0,1)
  ChangeInventory_Item(208,0,0,1)
  ChangeInventory_Item(224,0,0,1)
  ShowMessageFace("",0,0,2,34)
  ShowMessage("1 Magical Scales, 1 Magical Extract, and 1 Pitch Black Fragment were delivered!")
  EndEventProcessing()
  0()
 EndIf()
 If(1,12,0,8,0)
  ChangeInventory_Item(167,0,0,1)
  ChangeInventory_Item(217,0,0,1)
  ChangeInventory_Item(246,0,0,1)
  ShowMessageFace("",0,0,2,35)
  ShowMessage("1 Sharp Stinger, 1 Poisonous Stinger, and 1 Supreme Stinger were delivered!")
  EndEventProcessing()
  0()
 EndIf()
 If(1,12,0,9,0)
  ChangeInventory_Item(160,0,0,1)
  ChangeInventory_Item(177,0,0,1)
  ChangeInventory_Item(218,0,0,1)
  ShowMessageFace("",0,0,2,36)
  ShowMessage("1 Soft Jelly, 1 Slimy Jelly, and 1 Goopy Jelly were delivered!")
  EndEventProcessing()
  0()
 EndIf()
 If(1,12,0,10,0)
  ChangeInventory_Item(162,0,0,1)
  ChangeInventory_Item(181,0,0,1)
  ChangeInventory_Item(222,0,0,1)
  ShowMessageFace("",0,0,2,37)
  ShowMessage("1 Imp Tail, 1 Succubus Tail, and 1 Bewitching Tail were delivered!")
  EndEventProcessing()
  0()
 EndIf()
 If(1,12,0,11,0)
  ChangeInventory_Item(168,0,0,1)
  ChangeInventory_Item(192,0,0,1)
  ChangeInventory_Item(227,0,0,1)
  ShowMessageFace("",0,0,2,38)
  ShowMessage("1 Beautiful Feather, 1 Mysterious Feather, and 1 Shining Feather were delivered!")
  EndEventProcessing()
  0()
 EndIf()
 If(1,12,0,12,0)
  ChangeInventory_Item(174,0,0,1)
  ChangeInventory_Item(209,0,0,1)
  ChangeInventory_Item(242,0,0,1)
  ShowMessageFace("",0,0,2,39)
  ShowMessage("1 Furry Tail, 1 Soft Tail, and 1 Fluffy Tail were delivered!")
  EndEventProcessing()
  0()
 EndIf()
 If(1,12,0,13,0)
  ChangeInventory_Item(170,0,0,1)
  ChangeInventory_Item(187,0,0,1)
  ChangeInventory_Item(230,0,0,1)
  ShowMessageFace("",0,0,2,40)
  ShowMessage("1 Stone of Solidified Tears, 1 Jewel of Solidified Tears, and 1 Magic Crystallized Tears were delivered!")
  EndEventProcessing()
  0()
 EndIf()
 If(1,12,0,14,0)
  ChangeInventory_Item(169,0,0,1)
  ChangeInventory_Item(188,0,0,1)
  ChangeInventory_Item(229,0,0,1)
  ShowMessageFace("",0,0,2,41)
  ShowMessage("1 Mysterious Acorn, 1 Fairy Acorn, and 1 Spirit Acorn were delivered!")
  EndEventProcessing()
  0()
 EndIf()
 If(1,12,0,15,0)
  ChangeInventory_Item(241,0,0,1)
  ChangeInventory_Item(249,0,0,1)
  ChangeInventory_Item(252,0,0,1)
  ShowMessageFace("",0,0,2,42)
  ShowMessage("1 Angel Feather, 1 Miraculous Egg, and 1 Miraculous Feather were delivered!")
  EndEventProcessing()
  0()
 EndIf()
 If(1,12,0,16,0)
  ChangeInventory_Item(205,0,0,1)
  ChangeInventory_Item(232,0,0,1)
  ChangeInventory_Item(248,0,0,1)
  ShowMessageFace("",0,0,2,43)
  ShowMessage("1 Alraune Flower, 1 Attractive Petal, and 1 Grand Petal were delivered!")
  EndEventProcessing()
  0()
 EndIf()
 If(1,12,0,17,0)
  ChangeInventory_Item(198,0,0,1)
  ChangeInventory_Item(235,0,0,1)
  ChangeInventory_Item(253,0,0,1)
  ShowMessageFace("",0,0,2,44)
  ShowMessage("1 Chaos Crystal, 1 Chaotic Mass, and 1 Chaos Jewel were delivered!")
  EndEventProcessing()
  0()
 EndIf()
 If(1,12,0,18,0)
  ChangeInventory_Item(201,0,0,1)
  ChangeInventory_Item(214,0,0,1)
  ChangeInventory_Item(231,0,0,1)
  ShowMessageFace("",0,0,2,45)
  ShowMessage("1 Insect Epidermis, 1 Insect Wing, and 1 Insect Shell were delivered!")
  EndEventProcessing()
  0()
 EndIf()
 If(1,12,0,19,0)
  ChangeInventory_Item(179,0,0,1)
  ChangeInventory_Item(190,0,0,1)
  ChangeInventory_Item(202,0,0,1)
  ShowMessageFace("",0,0,2,46)
  ShowMessage("1 Shady Tentacle, 1 Scylla Tentacle, and 1 Coiling Tentacle were delivered!")
  EndEventProcessing()
  0()
 EndIf()
 If(1,12,0,20,0)
  ChangeInventory_Item(239,0,0,1)
  ChangeInventory_Item(243,0,0,1)
  ChangeInventory_Item(251,0,0,1)
  ShowMessageFace("",0,0,2,47)
  ShowMessage("1 Sparkling Crystal, 1 Ominous Crystal, and 1 Ancient Crystal were delivered!")
  EndEventProcessing()
  0()
 EndIf()
 If(1,12,0,21,0)
  ChangeInventory_Item(194,0,0,1)
  ChangeInventory_Item(237,0,0,1)
  ChangeInventory_Item(247,0,0,1)
  ShowMessageFace("",0,0,2,48)
  ShowMessage("1 Sharp Fang, 1 True Dragon Fang, and 1 Supreme Dragon Fang were delivered!")
  EndEventProcessing()
  0()
 EndIf()
 If(1,12,0,22,0)
  ChangeInventory_Item(180,0,0,1)
  ChangeInventory_Item(203,0,0,1)
  ChangeInventory_Item(250,0,0,1)
  ShowMessageFace("",0,0,2,49)
  ShowMessage("1 Valuable Parchment, 1 Paper Doll, and 1 Divine Paper were delivered!")
  EndEventProcessing()
  0()
 EndIf()
 0()
EndIf()
If(1,11,0,46,0)
 ChangeVariable(12,12,0,2,1,32)
 If(1,12,0,1,0)
  ChangeInventory_Item(54,0,0,1)
  ShowMessageFace("",0,0,2,50)
  ShowMessage("1 Salamander Ruby was delivered!")
  EndEventProcessing()
  0()
 EndIf()
 If(1,12,0,2,0)
  ChangeInventory_Item(58,0,0,1)
  ShowMessageFace("",0,0,2,51)
  ShowMessage("1 Frost Amethyst was delivered!")
  EndEventProcessing()
  0()
 EndIf()
 If(1,12,0,3,0)
  ChangeInventory_Item(62,0,0,1)
  ShowMessageFace("",0,0,2,52)
  ShowMessage("1 Plasma Tourmaline was delivered!")
  EndEventProcessing()
  0()
 EndIf()
 If(1,12,0,4,0)
  ChangeInventory_Item(66,0,0,1)
  ShowMessageFace("",0,0,2,53)
  ShowMessage("1 Sylph Emerald was delivered!")
  EndEventProcessing()
  0()
 EndIf()
 If(1,12,0,5,0)
  ChangeInventory_Item(70,0,0,1)
  ShowMessageFace("",0,0,2,54)
  ShowMessage("1 Gnome Topaz was delivered!")
  EndEventProcessing()
  0()
 EndIf()
 If(1,12,0,6,0)
  ChangeInventory_Item(74,0,0,1)
  ShowMessageFace("",0,0,2,55)
  ShowMessage("1 Undine Sapphire was delivered!")
  EndEventProcessing()
  0()
 EndIf()
 If(1,12,0,7,0)
  ChangeInventory_Item(78,0,0,1)
  ShowMessageFace("",0,0,2,56)
  ShowMessage("1 Angel Diamond was delivered!")
  EndEventProcessing()
  0()
 EndIf()
 If(1,12,0,8,0)
  ChangeInventory_Item(82,0,0,1)
  ShowMessageFace("",0,0,2,57)
  ShowMessage("1 Satan Crystal was delivered!")
  EndEventProcessing()
  0()
 EndIf()
 If(1,12,0,9,0)
  ChangeInventory_Item(254,0,0,1)
  ShowMessageFace("",0,0,2,58)
  ShowMessage("1 Final Crystal was delivered!")
  EndEventProcessing()
  0()
 EndIf()
 If(1,12,0,10,0)
  ChangeInventory_Item(255,0,0,1)
  ShowMessageFace("",0,0,2,59)
  ShowMessage("1 Divine Horn was delivered!")
  EndEventProcessing()
  0()
 EndIf()
 If(1,12,0,11,0)
  ChangeInventory_Item(256,0,0,1)
  ShowMessageFace("",0,0,2,60)
  ShowMessage("1 Great Succubus Tail was delivered!")
  EndEventProcessing()
  0()
 EndIf()
 If(1,12,0,12,0)
  ChangeInventory_Item(257,0,0,1)
  ShowMessageFace("",0,0,2,61)
  ShowMessage("1 Brilliant Black Fragment was delivered!")
  EndEventProcessing()
  0()
 EndIf()
 If(1,12,0,13,0)
  ChangeInventory_Item(258,0,0,1)
  ShowMessageFace("",0,0,2,62)
  ShowMessage("1 Eternal Scale was delivered!")
  EndEventProcessing()
  0()
 EndIf()
 If(1,12,0,14,0)
  ChangeInventory_Item(259,0,0,1)
  ShowMessageFace("",0,0,2,63)
  ShowMessage("1 Divine Crystallized Tears was delivered!")
  EndEventProcessing()
  0()
 EndIf()
 If(1,12,0,15,0)
  ChangeInventory_Item(260,0,0,1)
  ShowMessageFace("",0,0,2,64)
  ShowMessage("1 Divine Acorn was delivered!")
  EndEventProcessing()
  0()
 EndIf()
 If(1,12,0,16,0)
  ChangeInventory_Item(261,0,0,1)
  ShowMessageFace("",0,0,2,65)
  ShowMessage("1 Sparkling Jelly was delivered!")
  EndEventProcessing()
  0()
 EndIf()
 If(1,12,0,17,0)
  ChangeInventory_Item(262,0,0,1)
  ShowMessageFace("",0,0,2,66)
  ShowMessage("1 Divine Beast Claw was delivered!")
  EndEventProcessing()
  0()
 EndIf()
 If(1,12,0,18,0)
  ChangeInventory_Item(263,0,0,1)
  ShowMessageFace("",0,0,2,67)
  ShowMessage("1 White Tipped Tail was delivered!")
  EndEventProcessing()
  0()
 EndIf()
 If(1,12,0,19,0)
  ChangeInventory_Item(264,0,0,1)
  ShowMessageFace("",0,0,2,68)
  ShowMessage("1 Devil Snake was delivered!")
  EndEventProcessing()
  0()
 EndIf()
 If(1,12,0,20,0)
  ChangeInventory_Item(265,0,0,1)
  ShowMessageFace("",0,0,2,69)
  ShowMessage("名状しがたき触手を手に入れた！")
  EndEventProcessing()
  0()
 EndIf()
 If(1,12,0,21,0)
  ChangeInventory_Item(266,0,0,1)
  ShowMessageFace("",0,0,2,70)
  ShowMessage("1 Rainbow Feather was delivered!")
  EndEventProcessing()
  0()
 EndIf()
 If(1,12,0,22,0)
  ChangeInventory_Item(267,0,0,1)
  ShowMessageFace("",0,0,2,71)
  ShowMessage("1 Royal Dragon Fang was delivered!")
  EndEventProcessing()
  0()
 EndIf()
 If(1,12,0,23,0)
  ChangeInventory_Item(268,0,0,1)
  ShowMessageFace("",0,0,2,72)
  ShowMessage("百魔の粘液を手に入れた！")
  EndEventProcessing()
  0()
 EndIf()
 If(1,12,0,24,0)
  ChangeInventory_Item(269,0,0,1)
  ShowMessageFace("",0,0,2,73)
  ShowMessage("1 Demon Sea Coral was delivered!")
  EndEventProcessing()
  0()
 EndIf()
 If(1,12,0,25,0)
  ChangeInventory_Item(270,0,0,1)
  ShowMessageFace("",0,0,2,74)
  ShowMessage("1 Ultimate Needle was delivered!")
  EndEventProcessing()
  0()
 EndIf()
 If(1,12,0,26,0)
  ChangeInventory_Item(271,0,0,1)
  ShowMessageFace("",0,0,2,75)
  ShowMessage("1 Yggdrasil Petal was delivered!")
  EndEventProcessing()
  0()
 EndIf()
 If(1,12,0,27,0)
  ChangeInventory_Item(272,0,0,1)
  ShowMessageFace("",0,0,2,76)
  ShowMessage("1 Hades Powder was delivered!")
  EndEventProcessing()
  0()
 EndIf()
 If(1,12,0,28,0)
  ChangeInventory_Item(273,0,0,1)
  ShowMessageFace("",0,0,2,77)
  ShowMessage("1 Otherworldly Hair was delivered!")
  EndEventProcessing()
  0()
 EndIf()
 If(1,12,0,29,0)
  ChangeInventory_Item(274,0,0,1)
  ShowMessageFace("",0,0,2,78)
  ShowMessage("1 Quantum Gear was delivered!")
  EndEventProcessing()
  0()
 EndIf()
 If(1,12,0,30,0)
  ChangeInventory_Item(275,0,0,1)
  ShowMessageFace("",0,0,2,79)
  ShowMessage("1 Infinite Cell Culture was delivered!")
  EndEventProcessing()
  0()
 EndIf()
 If(1,12,0,31,0)
  ChangeInventory_Item(276,0,0,1)
  ShowMessageFace("",0,0,2,80)
  ShowMessage("黙示の羽根を手に入れた！")
  EndEventProcessing()
  0()
 EndIf()
 If(1,12,0,32,0)
  ChangeInventory_Item(277,0,0,1)
  ShowMessageFace("",0,0,2,81)
  ShowMessage("1 Chaotic Matter was delivered!")
  EndEventProcessing()
  0()
 EndIf()
 0()
EndIf()
0()
