// EVENT 4356
Name "Lamia 1"

If(0,25,1)
 221()
 PictureClear(5)
 PictureClear(6)
 ShowMessageFace("",0,0,2,0)
 ShowMessage("......")
 242(2)
 Wait(120)
 241(bytes(0x04,0x08,0x6f,0x3a,0x0d,0x52,0x50,0x47,0x3a,0x3a,0x42,0x47,0x4d,0x08,0x3a,0x0a,0x40,0x6e,0x61,0x6d,0x65,0x49,0x22,0x0c,0x63,0x61,0x73,0x74,0x6c,0x65,0x36,0x06,0x3a,0x06,0x45,0x54,0x3a,0x0c,0x40,0x76,0x6f,0x6c,0x75,0x6d,0x65,0x69,0x69,0x3a,0x0b,0x40,0x70,0x69,0x74,0x63,0x68,0x69,0x69))
 EndEventProcessing()
 0()
EndIf()
PictureDisplay(5,"80_lamia_st02",0,0,0,0,100,100,255,0)
ShowMessageFace("lamia_fc1",1,0,2,1)
ShowMessage("\\n<Anastasia>Fufu, you want to be wrapped up in my tail...\nDo you know what it means?")
ShowMessageFace("",0,0,2,2)
ShowMessage("\\n<Luka>P-please...")
ShowMessageFace("lamia_fc1",1,0,2,3)
ShowMessage("\\n<Anastasia>As you wish then...Fufu.\nYou're now my prey...")
241(bytes(0x04,0x08,0x6f,0x3a,0x0d,0x52,0x50,0x47,0x3a,0x3a,0x42,0x47,0x4d,0x08,0x3a,0x0a,0x40,0x6e,0x61,0x6d,0x65,0x49,0x22,0x09,0x65,0x72,0x6f,0x31,0x06,0x3a,0x06,0x45,0x54,0x3a,0x0c,0x40,0x76,0x6f,0x6c,0x75,0x6d,0x65,0x69,0x69,0x3a,0x0b,0x40,0x70,0x69,0x74,0x63,0x68,0x69,0x69))
250(bytes(0x04,0x08,0x6f,0x3a,0x0c,0x52,0x50,0x47,0x3a,0x3a,0x53,0x45,0x08,0x3a,0x0a,0x40,0x6e,0x61,0x6d,0x65,0x49,0x22,0x16,0x6d,0x6f,0x6e,0x5f,0x65,0x72,0x6f,0x5f,0x6d,0x61,0x6b,0x69,0x74,0x75,0x6b,0x69,0x33,0x06,0x3a,0x06,0x45,0x54,0x3a,0x0b,0x40,0x70,0x69,0x74,0x63,0x68,0x69,0x69,0x3a,0x0c,0x40,0x76,0x6f,0x6c,0x75,0x6d,0x65,0x69,0x69))
ShowMessageFace("",0,0,2,4)
ShowMessage("Anastasia rolls me up in her serpent body.")
ShowMessage("My whole body bound by her tail, I can't move at all.")
ShowMessageFace("",0,0,2,5)
ShowMessage("\\n<Luka>Urhg...")
ShowMessageFace("lamia_fc1",1,0,2,6)
ShowMessage("\\n<Anastasia>You're like a rat caught by a snake...\nFufu... Well, you'll have almost the same fate.")
ShowMessageFace("",0,0,2,7)
ShowMessage("Anastasia stares at me with a triumphant look on her face, as I pant in exhaustion.")
ShowMessageFace("",0,0,2,8)
ShowMessage("She's going to eat me...")
ShowMessage("I can tell just looking at her sadistic face...")
ShowMessageFace("",0,0,2,9)
ShowMessage("\\n<Luka>This...? Don't...")
ShowMessageFace("lamia_fc1",1,0,2,10)
ShowMessage("\\n<Anastasia>Hahaha... I'm going to swallow you in a few seconds.\nAre you mortified? Are you miserable?")
ShowMessageFace("",0,0,2,11)
ShowMessage("\\n<Luka>N-No...Don't...")
ShowMessageFace("",0,0,2,12)
ShowMessage("Unable to resist, all I can do is plead to Anastasia.")
ShowMessage("But my pleading seems to only make her happier...")
ShowMessageFace("",0,0,2,13)
ShowMessage("The dread fills my body as I realize what's going to happen next...")
ShowMessageFace("lamia_fc1",1,0,2,14)
ShowMessage("\\n<Anastasia>Now, I'll swallow you whole!")
ShowMessageFace("",0,0,2,15)
ShowMessage("\\n<Luka>Hiiii!")
If(0,95,0)
 246(2)
 221()
 ShowMessageFace("",0,0,2,16)
 ShowMessage("＊＊＊The rest of the vore scene is being skipped.＊＊＊")
 JumpToLabel("zzz")
 0()
EndIf()
ShowMessageFace("",0,0,2,17)
ShowMessage("In an instant, Anastasia's jaw unhinges and opens her mouth wide.")
ShowMessage("Then...She bends over, and swallows me in a single bite!")
ShowMessageFace("",0,0,2,18)
ShowMessage("\\n<Luka>No...！　Help me...!")
245(bytes(0x04,0x08,0x6f,0x3a,0x0d,0x52,0x50,0x47,0x3a,0x3a,0x42,0x47,0x53,0x08,0x3a,0x0a,0x40,0x6e,0x61,0x6d,0x65,0x49,0x22,0x1e,0x6d,0x6f,0x6e,0x5f,0x68,0x73,0x65,0x61,0x6e,0x31,0x31,0x5f,0x69,0x6e,0x6e,0x65,0x72,0x77,0x6f,0x72,0x6b,0x73,0x5f,0x63,0x31,0x06,0x3a,0x06,0x45,0x54,0x3a,0x0c,0x40,0x76,0x6f,0x6c,0x75,0x6d,0x65,0x69,0x55,0x3a,0x0b,0x40,0x70,0x69,0x74,0x63,0x68,0x69,0x69))
ShowMessageFace("",0,0,2,19)
ShowMessage("My body is forced through her down her narrow esophagus.")
ShowMessageFace("",0,0,2,20)
ShowMessage("The narrow tube inside of her contracts and loosens, slowly forcing my body deeper inside of her.")
ShowMessageFace("",0,0,2,21)
ShowMessage("\\n<Luka>Ahhh!")
ShowMessageFace("",0,0,2,22)
ShowMessage("I've been swallowed alive...")
ShowMessage("But for some reason, my fear is slowly fading...")
ShowMessageFace("",0,0,2,23)
ShowMessage("\\n<Luka>Faa... What is this...\nSomehow... It feels good...")
ShowMessageFace("",0,0,2,24)
ShowMessage("From her tight esophagus, I'm forced into her stomach.")
245(bytes(0x04,0x08,0x6f,0x3a,0x0d,0x52,0x50,0x47,0x3a,0x3a,0x42,0x47,0x53,0x08,0x3a,0x0a,0x40,0x6e,0x61,0x6d,0x65,0x49,0x22,0x1e,0x6d,0x6f,0x6e,0x5f,0x68,0x73,0x65,0x61,0x6e,0x31,0x32,0x5f,0x69,0x6e,0x6e,0x65,0x72,0x77,0x6f,0x72,0x6b,0x73,0x5f,0x63,0x32,0x06,0x3a,0x06,0x45,0x54,0x3a,0x0c,0x40,0x76,0x6f,0x6c,0x75,0x6d,0x65,0x69,0x55,0x3a,0x0b,0x40,0x70,0x69,0x74,0x63,0x68,0x69,0x69))
PictureDisplay(6,"ev_lamia_ct04",0,0,0,0,100,100,255,0)
ShowMessageFace("",0,0,2,25)
ShowMessage("Now in her stomach, my fear and horror start to fade.")
ShowMessageFace("",0,0,2,26)
ShowMessage("\\n<Luka>Faaa...")
ShowMessageFace("",0,0,2,27)
ShowMessage("Stuck in her stomach, it's as if I'm in a tight meaty sleeping bag.")
ShowMessage("As her walls close in on me, Anastasia's digestive juices cover my body.")
ShowMessage("。")
ShowMessageFace("",0,0,2,28)
ShowMessage("As the digestive juices start to slowly melt my body, I feel overcome by ecstasy.")
ShowMessageFace("",0,0,2,29)
ShowMessage("\\n<Luka>Aaa... It feels good...")
245(bytes(0x04,0x08,0x6f,0x3a,0x0d,0x52,0x50,0x47,0x3a,0x3a,0x42,0x47,0x53,0x08,0x3a,0x0a,0x40,0x6e,0x61,0x6d,0x65,0x49,0x22,0x1e,0x6d,0x6f,0x6e,0x5f,0x68,0x73,0x65,0x61,0x6e,0x31,0x33,0x5f,0x69,0x6e,0x6e,0x65,0x72,0x77,0x6f,0x72,0x6b,0x73,0x5f,0x63,0x33,0x06,0x3a,0x06,0x45,0x54,0x3a,0x0c,0x40,0x76,0x6f,0x6c,0x75,0x6d,0x65,0x69,0x55,0x3a,0x0b,0x40,0x70,0x69,0x74,0x63,0x68,0x69,0x69))
ShowMessageFace("",0,0,2,30)
ShowMessage("Feeling my body dissolve inside of her, I don't feel any pain.")
ShowMessage("Rather, I'm stuck in some sort of trance.")
ShowMessageFace("",0,0,2,31)
ShowMessage("Being eaten and digested by a monster... It feels like this...?")
ShowMessageFace("",0,0,2,32)
ShowMessage("\\n<Luka>Faa... Amazing...")
RunCommonEvent(104)
PictureDisplay(6,"ev_lamia_ct05",0,0,0,0,100,100,255,0)
RunCommonEvent(105)
ShowMessageFace("",0,0,2,33)
ShowMessage("The overpowering ecstasy forces me to ejaculate.")
ShowMessageFace("",0,0,2,34)
ShowMessage("Even though I'm beaten eaten alive in this terrifying situation...")
ShowMessageFace("",0,0,2,35)
ShowMessage("\\n<Luka>Aaaa... I came...\nHau! I'm coming again!")
RunCommonEvent(104)
RunCommonEvent(105)
ShowMessageFace("",0,0,2,36)
ShowMessage("Ashamed at feeling so good while being digested, I ejaculate again.")
ShowMessageFace("",0,0,2,37)
ShowMessage("As I shoot out semen inside Anastasia, my body continues to dissolve.")
ShowMessageFace("",0,0,2,38)
ShowMessage("\\n<Luka>Aaaa...")
ShowMessageFace("",0,0,2,39)
ShowMessage("I'm only food to Anastasia...")
ShowMessage("Filled with joy, instead of fear...")
ShowMessageFace("",0,0,2,40)
ShowMessage("As if experiencing the best thing in the world, I rejoice at my situation.")
ShowMessage("No... Being eaten by Anastasia may actually be the best thing in the world...")
ShowMessageFace("",0,0,2,41)
ShowMessage("\\n<Luka>A...aa....")
221()
PictureClear(5)
PictureClear(6)
246(2)
ShowMessageFace("",0,0,2,42)
ShowMessage("While experiencing the best pleasure in the world, I'm absorbed by Anastasia.")
ShowMessage("My body fully digested, I'm nothing but nutrients for Anastasia.")
ShowMessageFace("",0,0,2,43)
ShowMessage("But until the last moment, I was happy...")
ShowMessageFace("",0,0,2,44)
ShowMessage("......")
DefineLabel("zzz")
242(2)
Wait(120)
ChangeVariable(1002,1002,0,0,0)
216(1)
355("forced_transfer(154,18,52)")
355("release_temp_actors")
355("$game_map.screen.clear")
0()
